<?xml version="1.0" encoding="UTF-8" standalone="no"?>
<!DOCTYPE svg PUBLIC "-//W3C//DTD SVG 1.1//EN"
 "http://www.w3.org/Graphics/SVG/1.1/DTD/svg11.dtd">
<!-- Generated by graphviz version 2.46.1 (0)
 -->
<!-- Title: pipeline Pages: 1 -->
<svg width="3110pt" height="415pt"
 viewBox="0.00 0.00 3110.00 415.00" xmlns="http://www.w3.org/2000/svg" xmlns:xlink="http://www.w3.org/1999/xlink">
<g id="graph0" class="graph" transform="scale(1 1) rotate(0) translate(4 411)">
<title>pipeline</title>
<polygon fill="white" stroke="transparent" points="-4,4 -4,-411 3106,-411 3106,4 -4,4"/>
<text text-anchor="middle" x="1551" y="-395" font-family="sans" font-size="10.00">&lt;GstPipeline&gt;</text>
<text text-anchor="middle" x="1551" y="-384" font-family="sans" font-size="10.00">pipeline0</text>
<text text-anchor="middle" x="1551" y="-373" font-family="sans" font-size="10.00">[&gt;]</text>
<g id="clust1" class="cluster">
<title>cluster_capsfilter1_0x55c45811e650</title>
<path fill="#aaffaa" stroke="black" d="M2263,-8C2263,-8 2434,-8 2434,-8 2440,-8 2446,-14 2446,-20 2446,-20 2446,-92 2446,-92 2446,-98 2440,-104 2434,-104 2434,-104 2263,-104 2263,-104 2257,-104 2251,-98 2251,-92 2251,-92 2251,-20 2251,-20 2251,-14 2257,-8 2263,-8"/>
<text text-anchor="middle" x="2348.5" y="-93.6" font-family="Bitstream Vera Sans" font-size="8.00">GstCapsFilter</text>
<text text-anchor="middle" x="2348.5" y="-84.6" font-family="Bitstream Vera Sans" font-size="8.00">capsfilter1</text>
<text text-anchor="middle" x="2348.5" y="-75.6" font-family="Bitstream Vera Sans" font-size="8.00">[&gt;]</text>
<text text-anchor="middle" x="2348.5" y="-66.6" font-family="Bitstream Vera Sans" font-size="8.00">caps=video/x&#45;raw, width=(int)320, height=(int)240</text>
</g>
<g id="clust2" class="cluster">
<title>cluster_capsfilter1_0x55c45811e650_sink</title>
</g>
<g id="clust3" class="cluster">
<title>cluster_capsfilter1_0x55c45811e650_src</title>
</g>
<g id="clust4" class="cluster">
<title>cluster_capsfilter0_0x55c45811e310</title>
<path fill="#aaffaa" stroke="black" d="M496,-86C496,-86 667,-86 667,-86 673,-86 679,-92 679,-98 679,-98 679,-170 679,-170 679,-176 673,-182 667,-182 667,-182 496,-182 496,-182 490,-182 484,-176 484,-170 484,-170 484,-98 484,-98 484,-92 490,-86 496,-86"/>
<text text-anchor="middle" x="581.5" y="-171.6" font-family="Bitstream Vera Sans" font-size="8.00">GstCapsFilter</text>
<text text-anchor="middle" x="581.5" y="-162.6" font-family="Bitstream Vera Sans" font-size="8.00">capsfilter0</text>
<text text-anchor="middle" x="581.5" y="-153.6" font-family="Bitstream Vera Sans" font-size="8.00">[&gt;]</text>
<text text-anchor="middle" x="581.5" y="-144.6" font-family="Bitstream Vera Sans" font-size="8.00">caps=video/x&#45;raw, width=(int)640, height=(int)480</text>
</g>
<g id="clust5" class="cluster">
<title>cluster_capsfilter0_0x55c45811e310_sink</title>
</g>
<g id="clust6" class="cluster">
<title>cluster_capsfilter0_0x55c45811e310_src</title>
</g>
<g id="clust7" class="cluster">
<title>cluster_autovideosink1_0x55c45810a250</title>
<path fill="#ffffff" stroke="black" d="M2648,-8C2648,-8 3090,-8 3090,-8 3096,-8 3102,-14 3102,-20 3102,-20 3102,-224 3102,-224 3102,-230 3096,-236 3090,-236 3090,-236 2648,-236 2648,-236 2642,-236 2636,-230 2636,-224 2636,-224 2636,-20 2636,-20 2636,-14 2642,-8 2648,-8"/>
<text text-anchor="middle" x="2869" y="-225.6" font-family="Bitstream Vera Sans" font-size="8.00">GstAutoVideoSink</text>
<text text-anchor="middle" x="2869" y="-216.6" font-family="Bitstream Vera Sans" font-size="8.00">autovideosink1</text>
<text text-anchor="middle" x="2869" y="-207.6" font-family="Bitstream Vera Sans" font-size="8.00">[&gt;]</text>
<text text-anchor="middle" x="2869" y="-198.6" font-family="Bitstream Vera Sans" font-size="8.00">filter&#45;caps=video/x&#45;raw</text>
</g>
<g id="clust8" class="cluster">
<title>cluster_autovideosink1_0x55c45810a250_sink</title>
</g>
<g id="clust9" class="cluster">
<title>cluster_autovideosink1_actual_sink_xvimage_0x55c458123d90</title>
<path fill="#aaaaff" stroke="black" d="M2924,-16C2924,-16 3082,-16 3082,-16 3088,-16 3094,-22 3094,-28 3094,-28 3094,-172 3094,-172 3094,-178 3088,-184 3082,-184 3082,-184 2924,-184 2924,-184 2918,-184 2912,-178 2912,-172 2912,-172 2912,-28 2912,-28 2912,-22 2918,-16 2924,-16"/>
<text text-anchor="middle" x="3003" y="-173.6" font-family="Bitstream Vera Sans" font-size="8.00">GstXvImageSink</text>
<text text-anchor="middle" x="3003" y="-164.6" font-family="Bitstream Vera Sans" font-size="8.00">autovideosink1&#45;actual&#45;sink&#45;xvimage</text>
<text text-anchor="middle" x="3003" y="-155.6" font-family="Bitstream Vera Sans" font-size="8.00">[&gt;]</text>
<text text-anchor="middle" x="3003" y="-146.6" font-family="Bitstream Vera Sans" font-size="8.00">max&#45;lateness=5000000</text>
<text text-anchor="middle" x="3003" y="-137.6" font-family="Bitstream Vera Sans" font-size="8.00">qos=TRUE</text>
<text text-anchor="middle" x="3003" y="-128.6" font-family="Bitstream Vera Sans" font-size="8.00">last&#45;sample=((GstSample*) 0x55c4580f10c0)</text>
<text text-anchor="middle" x="3003" y="-119.6" font-family="Bitstream Vera Sans" font-size="8.00">processing&#45;deadline=15000000</text>
<text text-anchor="middle" x="3003" y="-110.6" font-family="Bitstream Vera Sans" font-size="8.00">device&#45;name=&quot;NV17 Video Texture&quot;</text>
<text text-anchor="middle" x="3003" y="-101.6" font-family="Bitstream Vera Sans" font-size="8.00">double&#45;buffer=FALSE</text>
<text text-anchor="middle" x="3003" y="-92.6" font-family="Bitstream Vera Sans" font-size="8.00">colorkey=526352</text>
<text text-anchor="middle" x="3003" y="-83.6" font-family="Bitstream Vera Sans" font-size="8.00">window&#45;width=320</text>
<text text-anchor="middle" x="3003" y="-74.6" font-family="Bitstream Vera Sans" font-size="8.00">window&#45;height=240</text>
</g>
<g id="clust10" class="cluster">
<title>cluster_autovideosink1_actual_sink_xvimage_0x55c458123d90_sink</title>
</g>
<g id="clust11" class="cluster">
<title>cluster_videoscale0_0x55c4581028a0</title>
<path fill="#aaffaa" stroke="black" d="M1607,-8C1607,-8 1993,-8 1993,-8 1999,-8 2005,-14 2005,-20 2005,-20 2005,-92 2005,-92 2005,-98 1999,-104 1993,-104 1993,-104 1607,-104 1607,-104 1601,-104 1595,-98 1595,-92 1595,-92 1595,-20 1595,-20 1595,-14 1601,-8 1607,-8"/>
<text text-anchor="middle" x="1800" y="-93.6" font-family="Bitstream Vera Sans" font-size="8.00">GstVideoScale</text>
<text text-anchor="middle" x="1800" y="-84.6" font-family="Bitstream Vera Sans" font-size="8.00">videoscale0</text>
<text text-anchor="middle" x="1800" y="-75.6" font-family="Bitstream Vera Sans" font-size="8.00">[&gt;]</text>
<text text-anchor="middle" x="1800" y="-66.6" font-family="Bitstream Vera Sans" font-size="8.00">qos=TRUE</text>
</g>
<g id="clust12" class="cluster">
<title>cluster_videoscale0_0x55c4581028a0_sink</title>
</g>
<g id="clust13" class="cluster">
<title>cluster_videoscale0_0x55c4581028a0_src</title>
</g>
<g id="clust14" class="cluster">
<title>cluster_queue1_0x55c4581043a0</title>
<path fill="#aaffaa" stroke="black" d="M1244,-8C1244,-8 1393,-8 1393,-8 1399,-8 1405,-14 1405,-20 1405,-20 1405,-110 1405,-110 1405,-116 1399,-122 1393,-122 1393,-122 1244,-122 1244,-122 1238,-122 1232,-116 1232,-110 1232,-110 1232,-20 1232,-20 1232,-14 1238,-8 1244,-8"/>
<text text-anchor="middle" x="1318.5" y="-111.6" font-family="Bitstream Vera Sans" font-size="8.00">GstQueue</text>
<text text-anchor="middle" x="1318.5" y="-102.6" font-family="Bitstream Vera Sans" font-size="8.00">queue1</text>
<text text-anchor="middle" x="1318.5" y="-93.6" font-family="Bitstream Vera Sans" font-size="8.00">[&gt;]</text>
<text text-anchor="middle" x="1318.5" y="-84.6" font-family="Bitstream Vera Sans" font-size="8.00">current&#45;level&#45;buffers=1</text>
<text text-anchor="middle" x="1318.5" y="-75.6" font-family="Bitstream Vera Sans" font-size="8.00">current&#45;level&#45;bytes=614400</text>
<text text-anchor="middle" x="1318.5" y="-66.6" font-family="Bitstream Vera Sans" font-size="8.00">current&#45;level&#45;time=33333333</text>
</g>
<g id="clust15" class="cluster">
<title>cluster_queue1_0x55c4581043a0_sink</title>
</g>
<g id="clust16" class="cluster">
<title>cluster_queue1_0x55c4581043a0_src</title>
</g>
<g id="clust17" class="cluster">
<title>cluster_autovideosink0_0x55c45810a060</title>
<path fill="#ffffff" stroke="black" d="M1607,-130C1607,-130 2049,-130 2049,-130 2055,-130 2061,-136 2061,-142 2061,-142 2061,-346 2061,-346 2061,-352 2055,-358 2049,-358 2049,-358 1607,-358 1607,-358 1601,-358 1595,-352 1595,-346 1595,-346 1595,-142 1595,-142 1595,-136 1601,-130 1607,-130"/>
<text text-anchor="middle" x="1828" y="-347.6" font-family="Bitstream Vera Sans" font-size="8.00">GstAutoVideoSink</text>
<text text-anchor="middle" x="1828" y="-338.6" font-family="Bitstream Vera Sans" font-size="8.00">autovideosink0</text>
<text text-anchor="middle" x="1828" y="-329.6" font-family="Bitstream Vera Sans" font-size="8.00">[&gt;]</text>
<text text-anchor="middle" x="1828" y="-320.6" font-family="Bitstream Vera Sans" font-size="8.00">filter&#45;caps=video/x&#45;raw</text>
</g>
<g id="clust18" class="cluster">
<title>cluster_autovideosink0_0x55c45810a060_sink</title>
</g>
<g id="clust19" class="cluster">
<title>cluster_autovideosink0_actual_sink_xvimage_0x55c45813b190</title>
<path fill="#aaaaff" stroke="black" d="M1883,-138C1883,-138 2041,-138 2041,-138 2047,-138 2053,-144 2053,-150 2053,-150 2053,-294 2053,-294 2053,-300 2047,-306 2041,-306 2041,-306 1883,-306 1883,-306 1877,-306 1871,-300 1871,-294 1871,-294 1871,-150 1871,-150 1871,-144 1877,-138 1883,-138"/>
<text text-anchor="middle" x="1962" y="-295.6" font-family="Bitstream Vera Sans" font-size="8.00">GstXvImageSink</text>
<text text-anchor="middle" x="1962" y="-286.6" font-family="Bitstream Vera Sans" font-size="8.00">autovideosink0&#45;actual&#45;sink&#45;xvimage</text>
<text text-anchor="middle" x="1962" y="-277.6" font-family="Bitstream Vera Sans" font-size="8.00">[&gt;]</text>
<text text-anchor="middle" x="1962" y="-268.6" font-family="Bitstream Vera Sans" font-size="8.00">max&#45;lateness=5000000</text>
<text text-anchor="middle" x="1962" y="-259.6" font-family="Bitstream Vera Sans" font-size="8.00">qos=TRUE</text>
<text text-anchor="middle" x="1962" y="-250.6" font-family="Bitstream Vera Sans" font-size="8.00">last&#45;sample=((GstSample*) 0x55c4580f11a0)</text>
<text text-anchor="middle" x="1962" y="-241.6" font-family="Bitstream Vera Sans" font-size="8.00">processing&#45;deadline=15000000</text>
<text text-anchor="middle" x="1962" y="-232.6" font-family="Bitstream Vera Sans" font-size="8.00">device&#45;name=&quot;NV17 Video Texture&quot;</text>
<text text-anchor="middle" x="1962" y="-223.6" font-family="Bitstream Vera Sans" font-size="8.00">double&#45;buffer=FALSE</text>
<text text-anchor="middle" x="1962" y="-214.6" font-family="Bitstream Vera Sans" font-size="8.00">colorkey=526352</text>
<text text-anchor="middle" x="1962" y="-205.6" font-family="Bitstream Vera Sans" font-size="8.00">window&#45;width=640</text>
<text text-anchor="middle" x="1962" y="-196.6" font-family="Bitstream Vera Sans" font-size="8.00">window&#45;height=480</text>
</g>
<g id="clust20" class="cluster">
<title>cluster_autovideosink0_actual_sink_xvimage_0x55c45813b190_sink</title>
</g>
<g id="clust21" class="cluster">
<title>cluster_queue0_0x55c4581040a0</title>
<path fill="#aaffaa" stroke="black" d="M1244,-130C1244,-130 1393,-130 1393,-130 1399,-130 1405,-136 1405,-142 1405,-142 1405,-232 1405,-232 1405,-238 1399,-244 1393,-244 1393,-244 1244,-244 1244,-244 1238,-244 1232,-238 1232,-232 1232,-232 1232,-142 1232,-142 1232,-136 1238,-130 1244,-130"/>
<text text-anchor="middle" x="1318.5" y="-233.6" font-family="Bitstream Vera Sans" font-size="8.00">GstQueue</text>
<text text-anchor="middle" x="1318.5" y="-224.6" font-family="Bitstream Vera Sans" font-size="8.00">queue0</text>
<text text-anchor="middle" x="1318.5" y="-215.6" font-family="Bitstream Vera Sans" font-size="8.00">[&gt;]</text>
<text text-anchor="middle" x="1318.5" y="-206.6" font-family="Bitstream Vera Sans" font-size="8.00">current&#45;level&#45;buffers=1</text>
<text text-anchor="middle" x="1318.5" y="-197.6" font-family="Bitstream Vera Sans" font-size="8.00">current&#45;level&#45;bytes=614400</text>
<text text-anchor="middle" x="1318.5" y="-188.6" font-family="Bitstream Vera Sans" font-size="8.00">current&#45;level&#45;time=33333333</text>
</g>
<g id="clust22" class="cluster">
<title>cluster_queue0_0x55c4581040a0_sink</title>
</g>
<g id="clust23" class="cluster">
<title>cluster_queue0_0x55c4581040a0_src</title>
</g>
<g id="clust24" class="cluster">
<title>cluster_t_0x55c458100000</title>
<path fill="#aaffaa" stroke="black" d="M881,-59C881,-59 1030,-59 1030,-59 1036,-59 1042,-65 1042,-71 1042,-71 1042,-170 1042,-170 1042,-176 1036,-182 1030,-182 1030,-182 881,-182 881,-182 875,-182 869,-176 869,-170 869,-170 869,-71 869,-71 869,-65 875,-59 881,-59"/>
<text text-anchor="middle" x="955.5" y="-171.6" font-family="Bitstream Vera Sans" font-size="8.00">GstTee</text>
<text text-anchor="middle" x="955.5" y="-162.6" font-family="Bitstream Vera Sans" font-size="8.00">t</text>
<text text-anchor="middle" x="955.5" y="-153.6" font-family="Bitstream Vera Sans" font-size="8.00">[&gt;]</text>
<text text-anchor="middle" x="955.5" y="-144.6" font-family="Bitstream Vera Sans" font-size="8.00">num&#45;src&#45;pads=2</text>
</g>
<g id="clust25" class="cluster">
<title>cluster_t_0x55c458100000_sink</title>
</g>
<g id="clust26" class="cluster">
<title>cluster_t_0x55c458100000_src</title>
</g>
<g id="clust27" class="cluster">
<title>cluster_videotestsrc0_0x55c4580f9410</title>
<path fill="#ffaaaa" stroke="black" d="M116,-86C116,-86 178,-86 178,-86 184,-86 190,-92 190,-98 190,-98 190,-170 190,-170 190,-176 184,-182 178,-182 178,-182 116,-182 116,-182 110,-182 104,-176 104,-170 104,-170 104,-98 104,-98 104,-92 110,-86 116,-86"/>
<text text-anchor="middle" x="147" y="-171.6" font-family="Bitstream Vera Sans" font-size="8.00">GstVideoTestSrc</text>
<text text-anchor="middle" x="147" y="-162.6" font-family="Bitstream Vera Sans" font-size="8.00">videotestsrc0</text>
<text text-anchor="middle" x="147" y="-153.6" font-family="Bitstream Vera Sans" font-size="8.00">[&gt;]</text>
<text text-anchor="middle" x="147" y="-144.6" font-family="Bitstream Vera Sans" font-size="8.00">pattern=ball</text>
</g>
<g id="clust28" class="cluster">
<title>cluster_videotestsrc0_0x55c4580f9410_src</title>
</g>
<!-- legend -->
<g id="node1" class="node">
<title>legend</title>
<polygon fill="lightgrey" stroke="black" points="294,-78 0,-78 0,-20 294,-20 294,-78"/>
<text text-anchor="start" x="4" y="-66.8" font-family="sans" font-size="9.00">Legend</text>
<text text-anchor="start" x="4" y="-56.8" font-family="sans" font-size="9.00">Element&#45;States: [~] void&#45;pending, [0] null, [&#45;] ready, [=] paused, [&gt;] playing</text>
<text text-anchor="start" x="4" y="-46.8" font-family="sans" font-size="9.00">Pad&#45;Activation: [&#45;] none, [&gt;] push, [&lt;] pull</text>
<text text-anchor="start" x="4" y="-36.8" font-family="sans" font-size="9.00">Pad&#45;Flags: [b]locked, [f]lushing, [b]locking, [E]OS; upper&#45;case is set</text>
<text text-anchor="start" x="4" y="-26.8" font-family="sans" font-size="9.00">Pad&#45;Task: [T] has started task, [t] has paused task</text>
</g>
<!-- capsfilter1_0x55c45811e650_sink_0x55c4580fbc50 -->
<g id="node2" class="node">
<title>capsfilter1_0x55c45811e650_sink_0x55c4580fbc50</title>
<polygon fill="#aaaaff" stroke="black" points="2332,-44 2278,-44 2278,-24 2332,-24 2332,-44"/>
<text text-anchor="middle" x="2305" y="-36.8" font-family="sans" font-size="9.00">sink</text>
<text text-anchor="middle" x="2305" y="-26.8" font-family="sans" font-size="9.00">[&gt;][bfb]</text>
</g>
<!-- capsfilter1_0x55c45811e650_src_0x55c45812a0f0 -->
<g id="node3" class="node">
<title>capsfilter1_0x55c45811e650_src_0x55c45812a0f0</title>
<polygon fill="#ffaaaa" stroke="black" points="2419,-44 2365,-44 2365,-24 2419,-24 2419,-44"/>
<text text-anchor="middle" x="2392" y="-36.8" font-family="sans" font-size="9.00">src</text>
<text text-anchor="middle" x="2392" y="-26.8" font-family="sans" font-size="9.00">[&gt;][bfb]</text>
</g>
<!-- capsfilter1_0x55c45811e650_sink_0x55c4580fbc50&#45;&gt;capsfilter1_0x55c45811e650_src_0x55c45812a0f0 -->
<!-- autovideosink1_0x55c45810a250_sink_0x55c45810c2c0 -->
<g id="node4" class="node">
<title>autovideosink1_0x55c45810a250_sink_0x55c45810c2c0</title>
<polygon fill="#ddddff" stroke="black" points="2706,-44 2652,-44 2652,-24 2706,-24 2706,-44"/>
<text text-anchor="middle" x="2679" y="-36.8" font-family="sans" font-size="9.00">sink</text>
<text text-anchor="middle" x="2679" y="-26.8" font-family="sans" font-size="9.00">[&gt;][bfb]</text>
</g>
<!-- capsfilter1_0x55c45811e650_src_0x55c45812a0f0&#45;&gt;autovideosink1_0x55c45810a250_sink_0x55c45810c2c0 -->
<g id="edge2" class="edge">
<title>capsfilter1_0x55c45811e650_src_0x55c45812a0f0&#45;&gt;autovideosink1_0x55c45810a250_sink_0x55c45810c2c0</title>
<path fill="none" stroke="black" d="M2419.05,-34C2470.02,-34 2583.04,-34 2641.46,-34"/>
<polygon fill="black" stroke="black" points="2641.7,-37.5 2651.7,-34 2641.7,-30.5 2641.7,-37.5"/>
<text text-anchor="start" x="2454" y="-106.8" font-family="monospace" font-size="9.00">video/x&#45;raw</text>
<text text-anchor="start" x="2454" y="-96.8" font-family="monospace" font-size="9.00"> &#160;&#160;&#160;&#160;&#160;&#160;&#160;&#160;&#160;&#160;&#160;&#160;&#160;format: YUY2</text>
<text text-anchor="start" x="2454" y="-86.8" font-family="monospace" font-size="9.00"> &#160;&#160;&#160;&#160;&#160;&#160;&#160;&#160;&#160;&#160;&#160;&#160;&#160;&#160;width: 320</text>
<text text-anchor="start" x="2454" y="-76.8" font-family="monospace" font-size="9.00"> &#160;&#160;&#160;&#160;&#160;&#160;&#160;&#160;&#160;&#160;&#160;&#160;&#160;height: 240</text>
<text text-anchor="start" x="2454" y="-66.8" font-family="monospace" font-size="9.00"> &#160;&#160;&#160;&#160;&#160;&#160;&#160;&#160;&#160;&#160;framerate: 30/1</text>
<text text-anchor="start" x="2454" y="-56.8" font-family="monospace" font-size="9.00"> &#160;&#160;&#160;&#160;&#160;multiview&#45;mode: mono</text>
<text text-anchor="start" x="2454" y="-46.8" font-family="monospace" font-size="9.00"> &#160;pixel&#45;aspect&#45;ratio: 1/1</text>
<text text-anchor="start" x="2454" y="-36.8" font-family="monospace" font-size="9.00"> &#160;&#160;&#160;&#160;&#160;interlace&#45;mode: progressive</text>
</g>
<!-- _proxypad1_0x55c45810e310 -->
<g id="node8" class="node">
<title>_proxypad1_0x55c45810e310</title>
<polygon fill="#ddddff" stroke="black" points="2706,-71 2652,-71 2652,-51 2706,-51 2706,-71"/>
<text text-anchor="middle" x="2679" y="-63.8" font-family="sans" font-size="9.00">proxypad1</text>
<text text-anchor="middle" x="2679" y="-53.8" font-family="sans" font-size="9.00">[&gt;][bfb]</text>
</g>
<!-- autovideosink1_0x55c45810a250_sink_0x55c45810c2c0&#45;&gt;_proxypad1_0x55c45810e310 -->
<g id="edge5" class="edge">
<title>autovideosink1_0x55c45810a250_sink_0x55c45810c2c0&#45;&gt;_proxypad1_0x55c45810e310</title>
<path fill="none" stroke="black" stroke-dasharray="5,2" d="M2679,-44.12C2679,-44.27 2679,-44.41 2679,-44.55"/>
<polygon fill="black" stroke="black" points="2675.5,-40.98 2679,-50.98 2682.5,-40.98 2675.5,-40.98"/>
</g>
<!-- capsfilter0_0x55c45811e310_sink_0x55c4580fb7b0 -->
<g id="node5" class="node">
<title>capsfilter0_0x55c45811e310_sink_0x55c4580fb7b0</title>
<polygon fill="#aaaaff" stroke="black" points="565,-122 511,-122 511,-102 565,-102 565,-122"/>
<text text-anchor="middle" x="538" y="-114.8" font-family="sans" font-size="9.00">sink</text>
<text text-anchor="middle" x="538" y="-104.8" font-family="sans" font-size="9.00">[&gt;][bfb]</text>
</g>
<!-- capsfilter0_0x55c45811e310_src_0x55c4580fba00 -->
<g id="node6" class="node">
<title>capsfilter0_0x55c45811e310_src_0x55c4580fba00</title>
<polygon fill="#ffaaaa" stroke="black" points="652,-122 598,-122 598,-102 652,-102 652,-122"/>
<text text-anchor="middle" x="625" y="-114.8" font-family="sans" font-size="9.00">src</text>
<text text-anchor="middle" x="625" y="-104.8" font-family="sans" font-size="9.00">[&gt;][bfb]</text>
</g>
<!-- capsfilter0_0x55c45811e310_sink_0x55c4580fb7b0&#45;&gt;capsfilter0_0x55c45811e310_src_0x55c4580fba00 -->
<!-- t_0x55c458100000_sink_0x55c4580fa2e0 -->
<g id="node7" class="node">
<title>t_0x55c458100000_sink_0x55c4580fa2e0</title>
<polygon fill="#aaaaff" stroke="black" points="939,-122 885,-122 885,-102 939,-102 939,-122"/>
<text text-anchor="middle" x="912" y="-114.8" font-family="sans" font-size="9.00">sink</text>
<text text-anchor="middle" x="912" y="-104.8" font-family="sans" font-size="9.00">[&gt;][bfb]</text>
</g>
<!-- capsfilter0_0x55c45811e310_src_0x55c4580fba00&#45;&gt;t_0x55c458100000_sink_0x55c4580fa2e0 -->
<g id="edge4" class="edge">
<title>capsfilter0_0x55c45811e310_src_0x55c4580fba00&#45;&gt;t_0x55c458100000_sink_0x55c4580fa2e0</title>
<path fill="none" stroke="black" d="M652.05,-112C703.02,-112 816.04,-112 874.46,-112"/>
<polygon fill="black" stroke="black" points="874.7,-115.5 884.7,-112 874.7,-108.5 874.7,-115.5"/>
<text text-anchor="start" x="687" y="-184.8" font-family="monospace" font-size="9.00">video/x&#45;raw</text>
<text text-anchor="start" x="687" y="-174.8" font-family="monospace" font-size="9.00"> &#160;&#160;&#160;&#160;&#160;&#160;&#160;&#160;&#160;&#160;&#160;&#160;&#160;format: YUY2</text>
<text text-anchor="start" x="687" y="-164.8" font-family="monospace" font-size="9.00"> &#160;&#160;&#160;&#160;&#160;&#160;&#160;&#160;&#160;&#160;&#160;&#160;&#160;&#160;width: 640</text>
<text text-anchor="start" x="687" y="-154.8" font-family="monospace" font-size="9.00"> &#160;&#160;&#160;&#160;&#160;&#160;&#160;&#160;&#160;&#160;&#160;&#160;&#160;height: 480</text>
<text text-anchor="start" x="687" y="-144.8" font-family="monospace" font-size="9.00"> &#160;&#160;&#160;&#160;&#160;&#160;&#160;&#160;&#160;&#160;framerate: 30/1</text>
<text text-anchor="start" x="687" y="-134.8" font-family="monospace" font-size="9.00"> &#160;&#160;&#160;&#160;&#160;multiview&#45;mode: mono</text>
<text text-anchor="start" x="687" y="-124.8" font-family="monospace" font-size="9.00"> &#160;pixel&#45;aspect&#45;ratio: 1/1</text>
<text text-anchor="start" x="687" y="-114.8" font-family="monospace" font-size="9.00"> &#160;&#160;&#160;&#160;&#160;interlace&#45;mode: progressive</text>
</g>
<!-- t_0x55c458100000_src_0_0x55c45810e560 -->
<g id="node19" class="node">
<title>t_0x55c458100000_src_0_0x55c45810e560</title>
<polygon fill="#ffaaaa" stroke="black" stroke-dasharray="5,2" points="1026,-122 972,-122 972,-102 1026,-102 1026,-122"/>
<text text-anchor="middle" x="999" y="-114.8" font-family="sans" font-size="9.00">src_0</text>
<text text-anchor="middle" x="999" y="-104.8" font-family="sans" font-size="9.00">[&gt;][bfb]</text>
</g>
<!-- t_0x55c458100000_sink_0x55c4580fa2e0&#45;&gt;t_0x55c458100000_src_0_0x55c45810e560 -->
<!-- autovideosink1_actual_sink_xvimage_0x55c458123d90_sink_0x55c45812a340 -->
<g id="node9" class="node">
<title>autovideosink1_actual_sink_xvimage_0x55c458123d90_sink_0x55c45812a340</title>
<polygon fill="#aaaaff" stroke="black" points="3030,-52 2976,-52 2976,-32 3030,-32 3030,-52"/>
<text text-anchor="middle" x="3003" y="-44.8" font-family="sans" font-size="9.00">sink</text>
<text text-anchor="middle" x="3003" y="-34.8" font-family="sans" font-size="9.00">[&gt;][bfb]</text>
</g>
<!-- _proxypad1_0x55c45810e310&#45;&gt;autovideosink1_actual_sink_xvimage_0x55c458123d90_sink_0x55c45812a340 -->
<g id="edge6" class="edge">
<title>_proxypad1_0x55c45810e310&#45;&gt;autovideosink1_actual_sink_xvimage_0x55c458123d90_sink_0x55c45812a340</title>
<path fill="none" stroke="black" d="M2706.08,-59.46C2763.23,-56.09 2899.67,-48.04 2965.39,-44.16"/>
<polygon fill="black" stroke="black" points="2965.9,-47.64 2975.68,-43.55 2965.49,-40.65 2965.9,-47.64"/>
<text text-anchor="start" x="2722" y="-131.8" font-family="monospace" font-size="9.00">video/x&#45;raw</text>
<text text-anchor="start" x="2722" y="-121.8" font-family="monospace" font-size="9.00"> &#160;&#160;&#160;&#160;&#160;&#160;&#160;&#160;&#160;&#160;&#160;&#160;&#160;format: YUY2</text>
<text text-anchor="start" x="2722" y="-111.8" font-family="monospace" font-size="9.00"> &#160;&#160;&#160;&#160;&#160;&#160;&#160;&#160;&#160;&#160;&#160;&#160;&#160;&#160;width: 320</text>
<text text-anchor="start" x="2722" y="-101.8" font-family="monospace" font-size="9.00"> &#160;&#160;&#160;&#160;&#160;&#160;&#160;&#160;&#160;&#160;&#160;&#160;&#160;height: 240</text>
<text text-anchor="start" x="2722" y="-91.8" font-family="monospace" font-size="9.00"> &#160;&#160;&#160;&#160;&#160;&#160;&#160;&#160;&#160;&#160;framerate: 30/1</text>
<text text-anchor="start" x="2722" y="-81.8" font-family="monospace" font-size="9.00"> &#160;&#160;&#160;&#160;&#160;multiview&#45;mode: mono</text>
<text text-anchor="start" x="2722" y="-71.8" font-family="monospace" font-size="9.00"> &#160;pixel&#45;aspect&#45;ratio: 1/1</text>
<text text-anchor="start" x="2722" y="-61.8" font-family="monospace" font-size="9.00"> &#160;&#160;&#160;&#160;&#160;interlace&#45;mode: progressive</text>
</g>
<!-- videoscale0_0x55c4581028a0_sink_0x55c4580fb0c0 -->
<g id="node10" class="node">
<title>videoscale0_0x55c4581028a0_sink_0x55c4580fb0c0</title>
<polygon fill="#aaaaff" stroke="black" points="1665,-44 1611,-44 1611,-24 1665,-24 1665,-44"/>
<text text-anchor="middle" x="1638" y="-36.8" font-family="sans" font-size="9.00">sink</text>
<text text-anchor="middle" x="1638" y="-26.8" font-family="sans" font-size="9.00">[&gt;][bfb]</text>
</g>
<!-- videoscale0_0x55c4581028a0_src_0x55c4580fb310 -->
<g id="node11" class="node">
<title>videoscale0_0x55c4581028a0_src_0x55c4580fb310</title>
<polygon fill="#ffaaaa" stroke="black" points="1989,-44 1935,-44 1935,-24 1989,-24 1989,-44"/>
<text text-anchor="middle" x="1962" y="-36.8" font-family="sans" font-size="9.00">src</text>
<text text-anchor="middle" x="1962" y="-26.8" font-family="sans" font-size="9.00">[&gt;][bfb]</text>
</g>
<!-- videoscale0_0x55c4581028a0_sink_0x55c4580fb0c0&#45;&gt;videoscale0_0x55c4581028a0_src_0x55c4580fb310 -->
<!-- videoscale0_0x55c4581028a0_src_0x55c4580fb310&#45;&gt;capsfilter1_0x55c45811e650_sink_0x55c4580fbc50 -->
<g id="edge8" class="edge">
<title>videoscale0_0x55c4581028a0_src_0x55c4580fb310&#45;&gt;capsfilter1_0x55c45811e650_sink_0x55c4580fbc50</title>
<path fill="none" stroke="black" d="M1989.19,-34C2049.44,-34 2198.01,-34 2267.3,-34"/>
<polygon fill="black" stroke="black" points="2267.72,-37.5 2277.72,-34 2267.72,-30.5 2267.72,-37.5"/>
<text text-anchor="start" x="2069" y="-106.8" font-family="monospace" font-size="9.00">video/x&#45;raw</text>
<text text-anchor="start" x="2069" y="-96.8" font-family="monospace" font-size="9.00"> &#160;&#160;&#160;&#160;&#160;&#160;&#160;&#160;&#160;&#160;&#160;&#160;&#160;format: YUY2</text>
<text text-anchor="start" x="2069" y="-86.8" font-family="monospace" font-size="9.00"> &#160;&#160;&#160;&#160;&#160;&#160;&#160;&#160;&#160;&#160;&#160;&#160;&#160;&#160;width: 320</text>
<text text-anchor="start" x="2069" y="-76.8" font-family="monospace" font-size="9.00"> &#160;&#160;&#160;&#160;&#160;&#160;&#160;&#160;&#160;&#160;&#160;&#160;&#160;height: 240</text>
<text text-anchor="start" x="2069" y="-66.8" font-family="monospace" font-size="9.00"> &#160;&#160;&#160;&#160;&#160;&#160;&#160;&#160;&#160;&#160;framerate: 30/1</text>
<text text-anchor="start" x="2069" y="-56.8" font-family="monospace" font-size="9.00"> &#160;&#160;&#160;&#160;&#160;multiview&#45;mode: mono</text>
<text text-anchor="start" x="2069" y="-46.8" font-family="monospace" font-size="9.00"> &#160;pixel&#45;aspect&#45;ratio: 1/1</text>
<text text-anchor="start" x="2069" y="-36.8" font-family="monospace" font-size="9.00"> &#160;&#160;&#160;&#160;&#160;interlace&#45;mode: progressive</text>
</g>
<!-- queue1_0x55c4581043a0_sink_0x55c4580fac20 -->
<g id="node12" class="node">
<title>queue1_0x55c4581043a0_sink_0x55c4580fac20</title>
<polygon fill="#aaaaff" stroke="black" points="1302,-44 1248,-44 1248,-24 1302,-24 1302,-44"/>
<text text-anchor="middle" x="1275" y="-36.8" font-family="sans" font-size="9.00">sink</text>
<text text-anchor="middle" x="1275" y="-26.8" font-family="sans" font-size="9.00">[&gt;][bfb]</text>
</g>
<!-- queue1_0x55c4581043a0_src_0x55c4580fae70 -->
<g id="node13" class="node">
<title>queue1_0x55c4581043a0_src_0x55c4580fae70</title>
<polygon fill="#ffaaaa" stroke="black" points="1389,-44 1335,-44 1335,-24 1389,-24 1389,-44"/>
<text text-anchor="middle" x="1362" y="-36.8" font-family="sans" font-size="9.00">src</text>
<text text-anchor="middle" x="1362" y="-26.8" font-family="sans" font-size="9.00">[&gt;][bfb][T]</text>
</g>
<!-- queue1_0x55c4581043a0_sink_0x55c4580fac20&#45;&gt;queue1_0x55c4581043a0_src_0x55c4580fae70 -->
<!-- queue1_0x55c4581043a0_src_0x55c4580fae70&#45;&gt;videoscale0_0x55c4581028a0_sink_0x55c4580fb0c0 -->
<g id="edge10" class="edge">
<title>queue1_0x55c4581043a0_src_0x55c4580fae70&#45;&gt;videoscale0_0x55c4581028a0_sink_0x55c4580fb0c0</title>
<path fill="none" stroke="black" d="M1389.27,-34C1438.47,-34 1544.59,-34 1600.62,-34"/>
<polygon fill="black" stroke="black" points="1600.81,-37.5 1610.81,-34 1600.81,-30.5 1600.81,-37.5"/>
<text text-anchor="start" x="1413" y="-106.8" font-family="monospace" font-size="9.00">video/x&#45;raw</text>
<text text-anchor="start" x="1413" y="-96.8" font-family="monospace" font-size="9.00"> &#160;&#160;&#160;&#160;&#160;&#160;&#160;&#160;&#160;&#160;&#160;&#160;&#160;format: YUY2</text>
<text text-anchor="start" x="1413" y="-86.8" font-family="monospace" font-size="9.00"> &#160;&#160;&#160;&#160;&#160;&#160;&#160;&#160;&#160;&#160;&#160;&#160;&#160;&#160;width: 640</text>
<text text-anchor="start" x="1413" y="-76.8" font-family="monospace" font-size="9.00"> &#160;&#160;&#160;&#160;&#160;&#160;&#160;&#160;&#160;&#160;&#160;&#160;&#160;height: 480</text>
<text text-anchor="start" x="1413" y="-66.8" font-family="monospace" font-size="9.00"> &#160;&#160;&#160;&#160;&#160;&#160;&#160;&#160;&#160;&#160;framerate: 30/1</text>
<text text-anchor="start" x="1413" y="-56.8" font-family="monospace" font-size="9.00"> &#160;&#160;&#160;&#160;&#160;multiview&#45;mode: mono</text>
<text text-anchor="start" x="1413" y="-46.8" font-family="monospace" font-size="9.00"> &#160;pixel&#45;aspect&#45;ratio: 1/1</text>
<text text-anchor="start" x="1413" y="-36.8" font-family="monospace" font-size="9.00"> &#160;&#160;&#160;&#160;&#160;interlace&#45;mode: progressive</text>
</g>
<!-- _proxypad0_0x55c45810e0b0 -->
<g id="node14" class="node">
<title>_proxypad0_0x55c45810e0b0</title>
<polygon fill="#ddddff" stroke="black" points="1665,-193 1611,-193 1611,-173 1665,-173 1665,-193"/>
<text text-anchor="middle" x="1638" y="-185.8" font-family="sans" font-size="9.00">proxypad0</text>
<text text-anchor="middle" x="1638" y="-175.8" font-family="sans" font-size="9.00">[&gt;][bfb]</text>
</g>
<!-- autovideosink0_actual_sink_xvimage_0x55c45813b190_sink_0x55c45812a590 -->
<g id="node16" class="node">
<title>autovideosink0_actual_sink_xvimage_0x55c45813b190_sink_0x55c45812a590</title>
<polygon fill="#aaaaff" stroke="black" points="1989,-174 1935,-174 1935,-154 1989,-154 1989,-174"/>
<text text-anchor="middle" x="1962" y="-166.8" font-family="sans" font-size="9.00">sink</text>
<text text-anchor="middle" x="1962" y="-156.8" font-family="sans" font-size="9.00">[&gt;][bfb]</text>
</g>
<!-- _proxypad0_0x55c45810e0b0&#45;&gt;autovideosink0_actual_sink_xvimage_0x55c45813b190_sink_0x55c45812a590 -->
<g id="edge12" class="edge">
<title>_proxypad0_0x55c45810e0b0&#45;&gt;autovideosink0_actual_sink_xvimage_0x55c45813b190_sink_0x55c45812a590</title>
<path fill="none" stroke="black" d="M1665.08,-181.46C1722.23,-178.09 1858.67,-170.04 1924.39,-166.16"/>
<polygon fill="black" stroke="black" points="1924.9,-169.64 1934.68,-165.55 1924.49,-162.65 1924.9,-169.64"/>
<text text-anchor="start" x="1681" y="-252.8" font-family="monospace" font-size="9.00">video/x&#45;raw</text>
<text text-anchor="start" x="1681" y="-242.8" font-family="monospace" font-size="9.00"> &#160;&#160;&#160;&#160;&#160;&#160;&#160;&#160;&#160;&#160;&#160;&#160;&#160;format: YUY2</text>
<text text-anchor="start" x="1681" y="-232.8" font-family="monospace" font-size="9.00"> &#160;&#160;&#160;&#160;&#160;&#160;&#160;&#160;&#160;&#160;&#160;&#160;&#160;&#160;width: 640</text>
<text text-anchor="start" x="1681" y="-222.8" font-family="monospace" font-size="9.00"> &#160;&#160;&#160;&#160;&#160;&#160;&#160;&#160;&#160;&#160;&#160;&#160;&#160;height: 480</text>
<text text-anchor="start" x="1681" y="-212.8" font-family="monospace" font-size="9.00"> &#160;&#160;&#160;&#160;&#160;&#160;&#160;&#160;&#160;&#160;framerate: 30/1</text>
<text text-anchor="start" x="1681" y="-202.8" font-family="monospace" font-size="9.00"> &#160;&#160;&#160;&#160;&#160;multiview&#45;mode: mono</text>
<text text-anchor="start" x="1681" y="-192.8" font-family="monospace" font-size="9.00"> &#160;pixel&#45;aspect&#45;ratio: 1/1</text>
<text text-anchor="start" x="1681" y="-182.8" font-family="monospace" font-size="9.00"> &#160;&#160;&#160;&#160;&#160;interlace&#45;mode: progressive</text>
</g>
<!-- autovideosink0_0x55c45810a060_sink_0x55c45810c050 -->
<g id="node15" class="node">
<title>autovideosink0_0x55c45810a060_sink_0x55c45810c050</title>
<polygon fill="#ddddff" stroke="black" points="1665,-166 1611,-166 1611,-146 1665,-146 1665,-166"/>
<text text-anchor="middle" x="1638" y="-158.8" font-family="sans" font-size="9.00">sink</text>
<text text-anchor="middle" x="1638" y="-148.8" font-family="sans" font-size="9.00">[&gt;][bfb]</text>
</g>
<!-- autovideosink0_0x55c45810a060_sink_0x55c45810c050&#45;&gt;_proxypad0_0x55c45810e0b0 -->
<g id="edge11" class="edge">
<title>autovideosink0_0x55c45810a060_sink_0x55c45810c050&#45;&gt;_proxypad0_0x55c45810e0b0</title>
<path fill="none" stroke="black" stroke-dasharray="5,2" d="M1638,-166.12C1638,-166.27 1638,-166.41 1638,-166.55"/>
<polygon fill="black" stroke="black" points="1634.5,-162.98 1638,-172.98 1641.5,-162.98 1634.5,-162.98"/>
</g>
<!-- queue0_0x55c4581040a0_sink_0x55c4580fa530 -->
<g id="node17" class="node">
<title>queue0_0x55c4581040a0_sink_0x55c4580fa530</title>
<polygon fill="#aaaaff" stroke="black" points="1302,-166 1248,-166 1248,-146 1302,-146 1302,-166"/>
<text text-anchor="middle" x="1275" y="-158.8" font-family="sans" font-size="9.00">sink</text>
<text text-anchor="middle" x="1275" y="-148.8" font-family="sans" font-size="9.00">[&gt;][bfb]</text>
</g>
<!-- queue0_0x55c4581040a0_src_0x55c4580fa780 -->
<g id="node18" class="node">
<title>queue0_0x55c4581040a0_src_0x55c4580fa780</title>
<polygon fill="#ffaaaa" stroke="black" points="1389,-166 1335,-166 1335,-146 1389,-146 1389,-166"/>
<text text-anchor="middle" x="1362" y="-158.8" font-family="sans" font-size="9.00">src</text>
<text text-anchor="middle" x="1362" y="-148.8" font-family="sans" font-size="9.00">[&gt;][bfb][T]</text>
</g>
<!-- queue0_0x55c4581040a0_sink_0x55c4580fa530&#45;&gt;queue0_0x55c4581040a0_src_0x55c4580fa780 -->
<!-- queue0_0x55c4581040a0_src_0x55c4580fa780&#45;&gt;autovideosink0_0x55c45810a060_sink_0x55c45810c050 -->
<g id="edge14" class="edge">
<title>queue0_0x55c4581040a0_src_0x55c4580fa780&#45;&gt;autovideosink0_0x55c45810a060_sink_0x55c45810c050</title>
<path fill="none" stroke="black" d="M1389.27,-156C1438.47,-156 1544.59,-156 1600.62,-156"/>
<polygon fill="black" stroke="black" points="1600.81,-159.5 1610.81,-156 1600.81,-152.5 1600.81,-159.5"/>
<text text-anchor="start" x="1413" y="-228.8" font-family="monospace" font-size="9.00">video/x&#45;raw</text>
<text text-anchor="start" x="1413" y="-218.8" font-family="monospace" font-size="9.00"> &#160;&#160;&#160;&#160;&#160;&#160;&#160;&#160;&#160;&#160;&#160;&#160;&#160;format: YUY2</text>
<text text-anchor="start" x="1413" y="-208.8" font-family="monospace" font-size="9.00"> &#160;&#160;&#160;&#160;&#160;&#160;&#160;&#160;&#160;&#160;&#160;&#160;&#160;&#160;width: 640</text>
<text text-anchor="start" x="1413" y="-198.8" font-family="monospace" font-size="9.00"> &#160;&#160;&#160;&#160;&#160;&#160;&#160;&#160;&#160;&#160;&#160;&#160;&#160;height: 480</text>
<text text-anchor="start" x="1413" y="-188.8" font-family="monospace" font-size="9.00"> &#160;&#160;&#160;&#160;&#160;&#160;&#160;&#160;&#160;&#160;framerate: 30/1</text>
<text text-anchor="start" x="1413" y="-178.8" font-family="monospace" font-size="9.00"> &#160;&#160;&#160;&#160;&#160;multiview&#45;mode: mono</text>
<text text-anchor="start" x="1413" y="-168.8" font-family="monospace" font-size="9.00"> &#160;pixel&#45;aspect&#45;ratio: 1/1</text>
<text text-anchor="start" x="1413" y="-158.8" font-family="monospace" font-size="9.00"> &#160;&#160;&#160;&#160;&#160;interlace&#45;mode: progressive</text>
</g>
<!-- t_0x55c458100000_src_0_0x55c45810e560&#45;&gt;queue0_0x55c4581040a0_sink_0x55c4580fa530 -->
<g id="edge16" class="edge">
<title>t_0x55c458100000_src_0_0x55c45810e560&#45;&gt;queue0_0x55c4581040a0_sink_0x55c4580fa530</title>
<path fill="none" stroke="black" d="M1024.33,-122.03C1032.38,-125 1041.47,-128 1050,-130 1115.1,-145.28 1193.05,-151.75 1237.72,-154.36"/>
<polygon fill="black" stroke="black" points="1237.62,-157.85 1247.8,-154.91 1238,-150.87 1237.62,-157.85"/>
<text text-anchor="start" x="1050" y="-225.8" font-family="monospace" font-size="9.00">video/x&#45;raw</text>
<text text-anchor="start" x="1050" y="-215.8" font-family="monospace" font-size="9.00"> &#160;&#160;&#160;&#160;&#160;&#160;&#160;&#160;&#160;&#160;&#160;&#160;&#160;format: YUY2</text>
<text text-anchor="start" x="1050" y="-205.8" font-family="monospace" font-size="9.00"> &#160;&#160;&#160;&#160;&#160;&#160;&#160;&#160;&#160;&#160;&#160;&#160;&#160;&#160;width: 640</text>
<text text-anchor="start" x="1050" y="-195.8" font-family="monospace" font-size="9.00"> &#160;&#160;&#160;&#160;&#160;&#160;&#160;&#160;&#160;&#160;&#160;&#160;&#160;height: 480</text>
<text text-anchor="start" x="1050" y="-185.8" font-family="monospace" font-size="9.00"> &#160;&#160;&#160;&#160;&#160;&#160;&#160;&#160;&#160;&#160;framerate: 30/1</text>
<text text-anchor="start" x="1050" y="-175.8" font-family="monospace" font-size="9.00"> &#160;&#160;&#160;&#160;&#160;multiview&#45;mode: mono</text>
<text text-anchor="start" x="1050" y="-165.8" font-family="monospace" font-size="9.00"> &#160;pixel&#45;aspect&#45;ratio: 1/1</text>
<text text-anchor="start" x="1050" y="-155.8" font-family="monospace" font-size="9.00"> &#160;&#160;&#160;&#160;&#160;interlace&#45;mode: progressive</text>
</g>
<!-- t_0x55c458100000_src_1_0x55c45810e7c0 -->
<g id="node20" class="node">
<title>t_0x55c458100000_src_1_0x55c45810e7c0</title>
<polygon fill="#ffaaaa" stroke="black" stroke-dasharray="5,2" points="1026,-95 972,-95 972,-75 1026,-75 1026,-95"/>
<text text-anchor="middle" x="999" y="-87.8" font-family="sans" font-size="9.00">src_1</text>
<text text-anchor="middle" x="999" y="-77.8" font-family="sans" font-size="9.00">[&gt;][bfb]</text>
</g>
<!-- t_0x55c458100000_src_1_0x55c45810e7c0&#45;&gt;queue1_0x55c4581043a0_sink_0x55c4580fac20 -->
<g id="edge17" class="edge">
<title>t_0x55c458100000_src_1_0x55c45810e7c0&#45;&gt;queue1_0x55c4581043a0_sink_0x55c4580fac20</title>
<path fill="none" stroke="black" d="M1010.48,-74.73C1019.94,-66.16 1034.7,-54.51 1050,-49 1112.98,-26.34 1192.27,-27.33 1237.64,-30.44"/>
<polygon fill="black" stroke="black" points="1237.63,-33.95 1247.87,-31.22 1238.16,-26.97 1237.63,-33.95"/>
<text text-anchor="start" x="1050" y="-121.8" font-family="monospace" font-size="9.00">video/x&#45;raw</text>
<text text-anchor="start" x="1050" y="-111.8" font-family="monospace" font-size="9.00"> &#160;&#160;&#160;&#160;&#160;&#160;&#160;&#160;&#160;&#160;&#160;&#160;&#160;format: YUY2</text>
<text text-anchor="start" x="1050" y="-101.8" font-family="monospace" font-size="9.00"> &#160;&#160;&#160;&#160;&#160;&#160;&#160;&#160;&#160;&#160;&#160;&#160;&#160;&#160;width: 640</text>
<text text-anchor="start" x="1050" y="-91.8" font-family="monospace" font-size="9.00"> &#160;&#160;&#160;&#160;&#160;&#160;&#160;&#160;&#160;&#160;&#160;&#160;&#160;height: 480</text>
<text text-anchor="start" x="1050" y="-81.8" font-family="monospace" font-size="9.00"> &#160;&#160;&#160;&#160;&#160;&#160;&#160;&#160;&#160;&#160;framerate: 30/1</text>
<text text-anchor="start" x="1050" y="-71.8" font-family="monospace" font-size="9.00"> &#160;&#160;&#160;&#160;&#160;multiview&#45;mode: mono</text>
<text text-anchor="start" x="1050" y="-61.8" font-family="monospace" font-size="9.00"> &#160;pixel&#45;aspect&#45;ratio: 1/1</text>
<text text-anchor="start" x="1050" y="-51.8" font-family="monospace" font-size="9.00"> &#160;&#160;&#160;&#160;&#160;interlace&#45;mode: progressive</text>
</g>
<!-- videotestsrc0_0x55c4580f9410_src_0x55c4580fa090 -->
<g id="node21" class="node">
<title>videotestsrc0_0x55c4580f9410_src_0x55c4580fa090</title>
<polygon fill="#ffaaaa" stroke="black" points="174,-122 120,-122 120,-102 174,-102 174,-122"/>
<text text-anchor="middle" x="147" y="-114.8" font-family="sans" font-size="9.00">src</text>
<text text-anchor="middle" x="147" y="-104.8" font-family="sans" font-size="9.00">[&gt;][bfb][T]</text>
</g>
<!-- videotestsrc0_0x55c4580f9410_src_0x55c4580fa090&#45;&gt;capsfilter0_0x55c45811e310_sink_0x55c4580fb7b0 -->
<g id="edge18" class="edge">
<title>videotestsrc0_0x55c4580f9410_src_0x55c4580fa090&#45;&gt;capsfilter0_0x55c45811e310_sink_0x55c4580fb7b0</title>
<path fill="none" stroke="black" d="M174.13,-112C241.81,-112 422.96,-112 500.72,-112"/>
<polygon fill="black" stroke="black" points="500.99,-115.5 510.99,-112 500.99,-108.5 500.99,-115.5"/>
<text text-anchor="start" x="302" y="-184.8" font-family="monospace" font-size="9.00">video/x&#45;raw</text>
<text text-anchor="start" x="302" y="-174.8" font-family="monospace" font-size="9.00"> &#160;&#160;&#160;&#160;&#160;&#160;&#160;&#160;&#160;&#160;&#160;&#160;&#160;format: YUY2</text>
<text text-anchor="start" x="302" y="-164.8" font-family="monospace" font-size="9.00"> &#160;&#160;&#160;&#160;&#160;&#160;&#160;&#160;&#160;&#160;&#160;&#160;&#160;&#160;width: 640</text>
<text text-anchor="start" x="302" y="-154.8" font-family="monospace" font-size="9.00"> &#160;&#160;&#160;&#160;&#160;&#160;&#160;&#160;&#160;&#160;&#160;&#160;&#160;height: 480</text>
<text text-anchor="start" x="302" y="-144.8" font-family="monospace" font-size="9.00"> &#160;&#160;&#160;&#160;&#160;&#160;&#160;&#160;&#160;&#160;framerate: 30/1</text>
<text text-anchor="start" x="302" y="-134.8" font-family="monospace" font-size="9.00"> &#160;&#160;&#160;&#160;&#160;multiview&#45;mode: mono</text>
<text text-anchor="start" x="302" y="-124.8" font-family="monospace" font-size="9.00"> &#160;pixel&#45;aspect&#45;ratio: 1/1</text>
<text text-anchor="start" x="302" y="-114.8" font-family="monospace" font-size="9.00"> &#160;&#160;&#160;&#160;&#160;interlace&#45;mode: progressive</text>
</g>
</g>
</svg>
