<?xml version="1.0" encoding="UTF-8" standalone="no"?>
<!DOCTYPE svg PUBLIC "-//W3C//DTD SVG 1.1//EN"
 "http://www.w3.org/Graphics/SVG/1.1/DTD/svg11.dtd">
<!-- Generated by graphviz version 2.46.1 (0)
 -->
<!-- Title: pipeline Pages: 1 -->
<svg width="3009pt" height="371pt"
 viewBox="0.00 0.00 3009.00 371.00" xmlns="http://www.w3.org/2000/svg" xmlns:xlink="http://www.w3.org/1999/xlink">
<g id="graph0" class="graph" transform="scale(1 1) rotate(0) translate(4 367)">
<title>pipeline</title>
<polygon fill="white" stroke="transparent" points="-4,4 -4,-367 3005,-367 3005,4 -4,4"/>
<text text-anchor="middle" x="1500.5" y="-351" font-family="sans" font-size="10.00">&lt;GstPipeline&gt;</text>
<text text-anchor="middle" x="1500.5" y="-340" font-family="sans" font-size="10.00">pipeline0</text>
<text text-anchor="middle" x="1500.5" y="-329" font-family="sans" font-size="10.00">[&#45;] &#45;&gt; [=]</text>
<g id="clust1" class="cluster">
<title>cluster_capsfilter1_0x55c45811e650</title>
<path fill="#aaffaa" stroke="black" d="M2267,-9C2267,-9 2438,-9 2438,-9 2444,-9 2450,-15 2450,-21 2450,-21 2450,-93 2450,-93 2450,-99 2444,-105 2438,-105 2438,-105 2267,-105 2267,-105 2261,-105 2255,-99 2255,-93 2255,-93 2255,-21 2255,-21 2255,-15 2261,-9 2267,-9"/>
<text text-anchor="middle" x="2352.5" y="-94.6" font-family="Bitstream Vera Sans" font-size="8.00">GstCapsFilter</text>
<text text-anchor="middle" x="2352.5" y="-85.6" font-family="Bitstream Vera Sans" font-size="8.00">capsfilter1</text>
<text text-anchor="middle" x="2352.5" y="-76.6" font-family="Bitstream Vera Sans" font-size="8.00">[&#45;]</text>
<text text-anchor="middle" x="2352.5" y="-67.6" font-family="Bitstream Vera Sans" font-size="8.00">caps=video/x&#45;raw, width=(int)320, height=(int)240</text>
</g>
<g id="clust2" class="cluster">
<title>cluster_capsfilter1_0x55c45811e650_sink</title>
</g>
<g id="clust3" class="cluster">
<title>cluster_capsfilter1_0x55c45811e650_src</title>
</g>
<g id="clust4" class="cluster">
<title>cluster_capsfilter0_0x55c45811e310</title>
<path fill="#aaffaa" stroke="black" d="M585,-84C585,-84 756,-84 756,-84 762,-84 768,-90 768,-96 768,-96 768,-168 768,-168 768,-174 762,-180 756,-180 756,-180 585,-180 585,-180 579,-180 573,-174 573,-168 573,-168 573,-96 573,-96 573,-90 579,-84 585,-84"/>
<text text-anchor="middle" x="670.5" y="-169.6" font-family="Bitstream Vera Sans" font-size="8.00">GstCapsFilter</text>
<text text-anchor="middle" x="670.5" y="-160.6" font-family="Bitstream Vera Sans" font-size="8.00">capsfilter0</text>
<text text-anchor="middle" x="670.5" y="-151.6" font-family="Bitstream Vera Sans" font-size="8.00">[&#45;]</text>
<text text-anchor="middle" x="670.5" y="-142.6" font-family="Bitstream Vera Sans" font-size="8.00">caps=video/x&#45;raw, width=(int)640, height=(int)480</text>
</g>
<g id="clust5" class="cluster">
<title>cluster_capsfilter0_0x55c45811e310_sink</title>
</g>
<g id="clust6" class="cluster">
<title>cluster_capsfilter0_0x55c45811e310_src</title>
</g>
<g id="clust7" class="cluster">
<title>cluster_autovideosink1_0x55c45810a250</title>
<path fill="#ffffff" stroke="black" d="M2494,-9C2494,-9 2989,-9 2989,-9 2995,-9 3001,-15 3001,-21 3001,-21 3001,-198 3001,-198 3001,-204 2995,-210 2989,-210 2989,-210 2494,-210 2494,-210 2488,-210 2482,-204 2482,-198 2482,-198 2482,-21 2482,-21 2482,-15 2488,-9 2494,-9"/>
<text text-anchor="middle" x="2741.5" y="-199.6" font-family="Bitstream Vera Sans" font-size="8.00">GstAutoVideoSink</text>
<text text-anchor="middle" x="2741.5" y="-190.6" font-family="Bitstream Vera Sans" font-size="8.00">autovideosink1</text>
<text text-anchor="middle" x="2741.5" y="-181.6" font-family="Bitstream Vera Sans" font-size="8.00">[&#45;]</text>
<text text-anchor="middle" x="2741.5" y="-172.6" font-family="Bitstream Vera Sans" font-size="8.00">filter&#45;caps=video/x&#45;raw</text>
</g>
<g id="clust8" class="cluster">
<title>cluster_autovideosink1_0x55c45810a250_sink</title>
</g>
<g id="clust9" class="cluster">
<title>cluster_autovideosink1_actual_sink_xvimage_0x55c458123d90</title>
<path fill="#aaaaff" stroke="black" d="M2859,-17C2859,-17 2981,-17 2981,-17 2987,-17 2993,-23 2993,-29 2993,-29 2993,-146 2993,-146 2993,-152 2987,-158 2981,-158 2981,-158 2859,-158 2859,-158 2853,-158 2847,-152 2847,-146 2847,-146 2847,-29 2847,-29 2847,-23 2853,-17 2859,-17"/>
<text text-anchor="middle" x="2920" y="-147.6" font-family="Bitstream Vera Sans" font-size="8.00">GstXvImageSink</text>
<text text-anchor="middle" x="2920" y="-138.6" font-family="Bitstream Vera Sans" font-size="8.00">autovideosink1&#45;actual&#45;sink&#45;xvimage</text>
<text text-anchor="middle" x="2920" y="-129.6" font-family="Bitstream Vera Sans" font-size="8.00">[&#45;]</text>
<text text-anchor="middle" x="2920" y="-120.6" font-family="Bitstream Vera Sans" font-size="8.00">max&#45;lateness=5000000</text>
<text text-anchor="middle" x="2920" y="-111.6" font-family="Bitstream Vera Sans" font-size="8.00">qos=TRUE</text>
<text text-anchor="middle" x="2920" y="-102.6" font-family="Bitstream Vera Sans" font-size="8.00">processing&#45;deadline=15000000</text>
<text text-anchor="middle" x="2920" y="-93.6" font-family="Bitstream Vera Sans" font-size="8.00">device&#45;name=&quot;NV17 Video Texture&quot;</text>
<text text-anchor="middle" x="2920" y="-84.6" font-family="Bitstream Vera Sans" font-size="8.00">double&#45;buffer=FALSE</text>
<text text-anchor="middle" x="2920" y="-75.6" font-family="Bitstream Vera Sans" font-size="8.00">colorkey=526352</text>
</g>
<g id="clust10" class="cluster">
<title>cluster_autovideosink1_actual_sink_xvimage_0x55c458123d90_sink</title>
</g>
<g id="clust11" class="cluster">
<title>cluster_videoscale0_0x55c4581028a0</title>
<path fill="#aaffaa" stroke="black" d="M1469,-9C1469,-9 1926,-9 1926,-9 1932,-9 1938,-15 1938,-21 1938,-21 1938,-93 1938,-93 1938,-99 1932,-105 1926,-105 1926,-105 1469,-105 1469,-105 1463,-105 1457,-99 1457,-93 1457,-93 1457,-21 1457,-21 1457,-15 1463,-9 1469,-9"/>
<text text-anchor="middle" x="1697.5" y="-94.6" font-family="Bitstream Vera Sans" font-size="8.00">GstVideoScale</text>
<text text-anchor="middle" x="1697.5" y="-85.6" font-family="Bitstream Vera Sans" font-size="8.00">videoscale0</text>
<text text-anchor="middle" x="1697.5" y="-76.6" font-family="Bitstream Vera Sans" font-size="8.00">[&#45;]</text>
<text text-anchor="middle" x="1697.5" y="-67.6" font-family="Bitstream Vera Sans" font-size="8.00">qos=TRUE</text>
</g>
<g id="clust12" class="cluster">
<title>cluster_videoscale0_0x55c4581028a0_sink</title>
</g>
<g id="clust13" class="cluster">
<title>cluster_videoscale0_0x55c4581028a0_src</title>
</g>
<g id="clust14" class="cluster">
<title>cluster_queue1_0x55c4581043a0</title>
<path fill="#aaffaa" stroke="black" d="M1017,-12C1017,-12 1166,-12 1166,-12 1172,-12 1178,-18 1178,-24 1178,-24 1178,-87 1178,-87 1178,-93 1172,-99 1166,-99 1166,-99 1017,-99 1017,-99 1011,-99 1005,-93 1005,-87 1005,-87 1005,-24 1005,-24 1005,-18 1011,-12 1017,-12"/>
<text text-anchor="middle" x="1091.5" y="-88.6" font-family="Bitstream Vera Sans" font-size="8.00">GstQueue</text>
<text text-anchor="middle" x="1091.5" y="-79.6" font-family="Bitstream Vera Sans" font-size="8.00">queue1</text>
<text text-anchor="middle" x="1091.5" y="-70.6" font-family="Bitstream Vera Sans" font-size="8.00">[&#45;]</text>
</g>
<g id="clust15" class="cluster">
<title>cluster_queue1_0x55c4581043a0_sink</title>
</g>
<g id="clust16" class="cluster">
<title>cluster_queue1_0x55c4581043a0_src</title>
</g>
<g id="clust17" class="cluster">
<title>cluster_autovideosink0_0x55c45810a060</title>
<path fill="#ffffff" stroke="black" d="M1469,-113C1469,-113 1964,-113 1964,-113 1970,-113 1976,-119 1976,-125 1976,-125 1976,-302 1976,-302 1976,-308 1970,-314 1964,-314 1964,-314 1469,-314 1469,-314 1463,-314 1457,-308 1457,-302 1457,-302 1457,-125 1457,-125 1457,-119 1463,-113 1469,-113"/>
<text text-anchor="middle" x="1716.5" y="-303.6" font-family="Bitstream Vera Sans" font-size="8.00">GstAutoVideoSink</text>
<text text-anchor="middle" x="1716.5" y="-294.6" font-family="Bitstream Vera Sans" font-size="8.00">autovideosink0</text>
<text text-anchor="middle" x="1716.5" y="-285.6" font-family="Bitstream Vera Sans" font-size="8.00">[&#45;]</text>
<text text-anchor="middle" x="1716.5" y="-276.6" font-family="Bitstream Vera Sans" font-size="8.00">filter&#45;caps=video/x&#45;raw</text>
</g>
<g id="clust18" class="cluster">
<title>cluster_autovideosink0_0x55c45810a060_sink</title>
</g>
<g id="clust19" class="cluster">
<title>cluster_autovideosink0_actual_sink_xvimage_0x55c45813b190</title>
<path fill="#aaaaff" stroke="black" d="M1834,-121C1834,-121 1956,-121 1956,-121 1962,-121 1968,-127 1968,-133 1968,-133 1968,-250 1968,-250 1968,-256 1962,-262 1956,-262 1956,-262 1834,-262 1834,-262 1828,-262 1822,-256 1822,-250 1822,-250 1822,-133 1822,-133 1822,-127 1828,-121 1834,-121"/>
<text text-anchor="middle" x="1895" y="-251.6" font-family="Bitstream Vera Sans" font-size="8.00">GstXvImageSink</text>
<text text-anchor="middle" x="1895" y="-242.6" font-family="Bitstream Vera Sans" font-size="8.00">autovideosink0&#45;actual&#45;sink&#45;xvimage</text>
<text text-anchor="middle" x="1895" y="-233.6" font-family="Bitstream Vera Sans" font-size="8.00">[&#45;]</text>
<text text-anchor="middle" x="1895" y="-224.6" font-family="Bitstream Vera Sans" font-size="8.00">max&#45;lateness=5000000</text>
<text text-anchor="middle" x="1895" y="-215.6" font-family="Bitstream Vera Sans" font-size="8.00">qos=TRUE</text>
<text text-anchor="middle" x="1895" y="-206.6" font-family="Bitstream Vera Sans" font-size="8.00">processing&#45;deadline=15000000</text>
<text text-anchor="middle" x="1895" y="-197.6" font-family="Bitstream Vera Sans" font-size="8.00">device&#45;name=&quot;NV17 Video Texture&quot;</text>
<text text-anchor="middle" x="1895" y="-188.6" font-family="Bitstream Vera Sans" font-size="8.00">double&#45;buffer=FALSE</text>
<text text-anchor="middle" x="1895" y="-179.6" font-family="Bitstream Vera Sans" font-size="8.00">colorkey=526352</text>
</g>
<g id="clust20" class="cluster">
<title>cluster_autovideosink0_actual_sink_xvimage_0x55c45813b190_sink</title>
</g>
<g id="clust21" class="cluster">
<title>cluster_queue0_0x55c4581040a0</title>
<path fill="#aaffaa" stroke="black" d="M1017,-111C1017,-111 1166,-111 1166,-111 1172,-111 1178,-117 1178,-123 1178,-123 1178,-186 1178,-186 1178,-192 1172,-198 1166,-198 1166,-198 1017,-198 1017,-198 1011,-198 1005,-192 1005,-186 1005,-186 1005,-123 1005,-123 1005,-117 1011,-111 1017,-111"/>
<text text-anchor="middle" x="1091.5" y="-187.6" font-family="Bitstream Vera Sans" font-size="8.00">GstQueue</text>
<text text-anchor="middle" x="1091.5" y="-178.6" font-family="Bitstream Vera Sans" font-size="8.00">queue0</text>
<text text-anchor="middle" x="1091.5" y="-169.6" font-family="Bitstream Vera Sans" font-size="8.00">[&#45;]</text>
</g>
<g id="clust22" class="cluster">
<title>cluster_queue0_0x55c4581040a0_sink</title>
</g>
<g id="clust23" class="cluster">
<title>cluster_queue0_0x55c4581040a0_src</title>
</g>
<g id="clust24" class="cluster">
<title>cluster_t_0x55c458100000</title>
<path fill="#aaffaa" stroke="black" d="M812,-57C812,-57 961,-57 961,-57 967,-57 973,-63 973,-69 973,-69 973,-168 973,-168 973,-174 967,-180 961,-180 961,-180 812,-180 812,-180 806,-180 800,-174 800,-168 800,-168 800,-69 800,-69 800,-63 806,-57 812,-57"/>
<text text-anchor="middle" x="886.5" y="-169.6" font-family="Bitstream Vera Sans" font-size="8.00">GstTee</text>
<text text-anchor="middle" x="886.5" y="-160.6" font-family="Bitstream Vera Sans" font-size="8.00">t</text>
<text text-anchor="middle" x="886.5" y="-151.6" font-family="Bitstream Vera Sans" font-size="8.00">[&#45;]</text>
<text text-anchor="middle" x="886.5" y="-142.6" font-family="Bitstream Vera Sans" font-size="8.00">num&#45;src&#45;pads=2</text>
</g>
<g id="clust25" class="cluster">
<title>cluster_t_0x55c458100000_sink</title>
</g>
<g id="clust26" class="cluster">
<title>cluster_t_0x55c458100000_src</title>
</g>
<g id="clust27" class="cluster">
<title>cluster_videotestsrc0_0x55c4580f9410</title>
<path fill="#ffaaaa" stroke="black" d="M116,-84C116,-84 178,-84 178,-84 184,-84 190,-90 190,-96 190,-96 190,-168 190,-168 190,-174 184,-180 178,-180 178,-180 116,-180 116,-180 110,-180 104,-174 104,-168 104,-168 104,-96 104,-96 104,-90 110,-84 116,-84"/>
<text text-anchor="middle" x="147" y="-169.6" font-family="Bitstream Vera Sans" font-size="8.00">GstVideoTestSrc</text>
<text text-anchor="middle" x="147" y="-160.6" font-family="Bitstream Vera Sans" font-size="8.00">videotestsrc0</text>
<text text-anchor="middle" x="147" y="-151.6" font-family="Bitstream Vera Sans" font-size="8.00">[&#45;]</text>
<text text-anchor="middle" x="147" y="-142.6" font-family="Bitstream Vera Sans" font-size="8.00">pattern=ball</text>
</g>
<g id="clust28" class="cluster">
<title>cluster_videotestsrc0_0x55c4580f9410_src</title>
</g>
<!-- legend -->
<g id="node1" class="node">
<title>legend</title>
<polygon fill="lightgrey" stroke="black" points="294,-76 0,-76 0,-18 294,-18 294,-76"/>
<text text-anchor="start" x="4" y="-64.8" font-family="sans" font-size="9.00">Legend</text>
<text text-anchor="start" x="4" y="-54.8" font-family="sans" font-size="9.00">Element&#45;States: [~] void&#45;pending, [0] null, [&#45;] ready, [=] paused, [&gt;] playing</text>
<text text-anchor="start" x="4" y="-44.8" font-family="sans" font-size="9.00">Pad&#45;Activation: [&#45;] none, [&gt;] push, [&lt;] pull</text>
<text text-anchor="start" x="4" y="-34.8" font-family="sans" font-size="9.00">Pad&#45;Flags: [b]locked, [f]lushing, [b]locking, [E]OS; upper&#45;case is set</text>
<text text-anchor="start" x="4" y="-24.8" font-family="sans" font-size="9.00">Pad&#45;Task: [T] has started task, [t] has paused task</text>
</g>
<!-- capsfilter1_0x55c45811e650_sink_0x55c4580fbc50 -->
<g id="node2" class="node">
<title>capsfilter1_0x55c45811e650_sink_0x55c4580fbc50</title>
<polygon fill="#aaaaff" stroke="black" points="2336,-45 2282,-45 2282,-25 2336,-25 2336,-45"/>
<text text-anchor="middle" x="2309" y="-37.8" font-family="sans" font-size="9.00">sink</text>
<text text-anchor="middle" x="2309" y="-27.8" font-family="sans" font-size="9.00">[&#45;][bFb]</text>
</g>
<!-- capsfilter1_0x55c45811e650_src_0x55c45812a0f0 -->
<g id="node3" class="node">
<title>capsfilter1_0x55c45811e650_src_0x55c45812a0f0</title>
<polygon fill="#ffaaaa" stroke="black" points="2423,-45 2369,-45 2369,-25 2423,-25 2423,-45"/>
<text text-anchor="middle" x="2396" y="-37.8" font-family="sans" font-size="9.00">src</text>
<text text-anchor="middle" x="2396" y="-27.8" font-family="sans" font-size="9.00">[&#45;][bFb]</text>
</g>
<!-- capsfilter1_0x55c45811e650_sink_0x55c4580fbc50&#45;&gt;capsfilter1_0x55c45811e650_src_0x55c45812a0f0 -->
<!-- autovideosink1_0x55c45810a250_sink_0x55c45810c2c0 -->
<g id="node4" class="node">
<title>autovideosink1_0x55c45810a250_sink_0x55c45810c2c0</title>
<polygon fill="#ddddff" stroke="black" points="2552,-45 2498,-45 2498,-25 2552,-25 2552,-45"/>
<text text-anchor="middle" x="2525" y="-37.8" font-family="sans" font-size="9.00">sink</text>
<text text-anchor="middle" x="2525" y="-27.8" font-family="sans" font-size="9.00">[&#45;][bFb]</text>
</g>
<!-- capsfilter1_0x55c45811e650_src_0x55c45812a0f0&#45;&gt;autovideosink1_0x55c45810a250_sink_0x55c45810c2c0 -->
<g id="edge2" class="edge">
<title>capsfilter1_0x55c45811e650_src_0x55c45812a0f0&#45;&gt;autovideosink1_0x55c45810a250_sink_0x55c45810c2c0</title>
<path fill="none" stroke="black" d="M2423.01,-35C2441.63,-35 2466.96,-35 2487.59,-35"/>
<polygon fill="black" stroke="black" points="2487.59,-38.5 2497.59,-35 2487.59,-31.5 2487.59,-38.5"/>
<text text-anchor="middle" x="2466" y="-37.8" font-family="monospace" font-size="9.00">ANY</text>
</g>
<!-- _proxypad1_0x55c45810e310 -->
<g id="node8" class="node">
<title>_proxypad1_0x55c45810e310</title>
<polygon fill="#ddddff" stroke="black" points="2552,-72 2498,-72 2498,-52 2552,-52 2552,-72"/>
<text text-anchor="middle" x="2525" y="-64.8" font-family="sans" font-size="9.00">proxypad1</text>
<text text-anchor="middle" x="2525" y="-54.8" font-family="sans" font-size="9.00">[&#45;][bfb]</text>
</g>
<!-- autovideosink1_0x55c45810a250_sink_0x55c45810c2c0&#45;&gt;_proxypad1_0x55c45810e310 -->
<g id="edge5" class="edge">
<title>autovideosink1_0x55c45810a250_sink_0x55c45810c2c0&#45;&gt;_proxypad1_0x55c45810e310</title>
<path fill="none" stroke="black" stroke-dasharray="5,2" d="M2525,-45.13C2525,-45.27 2525,-45.41 2525,-45.55"/>
<polygon fill="black" stroke="black" points="2521.5,-41.98 2525,-51.98 2528.5,-41.98 2521.5,-41.98"/>
</g>
<!-- capsfilter0_0x55c45811e310_sink_0x55c4580fb7b0 -->
<g id="node5" class="node">
<title>capsfilter0_0x55c45811e310_sink_0x55c4580fb7b0</title>
<polygon fill="#aaaaff" stroke="black" points="654,-120 600,-120 600,-100 654,-100 654,-120"/>
<text text-anchor="middle" x="627" y="-112.8" font-family="sans" font-size="9.00">sink</text>
<text text-anchor="middle" x="627" y="-102.8" font-family="sans" font-size="9.00">[&#45;][bFb]</text>
</g>
<!-- capsfilter0_0x55c45811e310_src_0x55c4580fba00 -->
<g id="node6" class="node">
<title>capsfilter0_0x55c45811e310_src_0x55c4580fba00</title>
<polygon fill="#ffaaaa" stroke="black" points="741,-120 687,-120 687,-100 741,-100 741,-120"/>
<text text-anchor="middle" x="714" y="-112.8" font-family="sans" font-size="9.00">src</text>
<text text-anchor="middle" x="714" y="-102.8" font-family="sans" font-size="9.00">[&#45;][bFb]</text>
</g>
<!-- capsfilter0_0x55c45811e310_sink_0x55c4580fb7b0&#45;&gt;capsfilter0_0x55c45811e310_src_0x55c4580fba00 -->
<!-- t_0x55c458100000_sink_0x55c4580fa2e0 -->
<g id="node7" class="node">
<title>t_0x55c458100000_sink_0x55c4580fa2e0</title>
<polygon fill="#aaaaff" stroke="black" points="870,-120 816,-120 816,-100 870,-100 870,-120"/>
<text text-anchor="middle" x="843" y="-112.8" font-family="sans" font-size="9.00">sink</text>
<text text-anchor="middle" x="843" y="-102.8" font-family="sans" font-size="9.00">[&#45;][bFb]</text>
</g>
<!-- capsfilter0_0x55c45811e310_src_0x55c4580fba00&#45;&gt;t_0x55c458100000_sink_0x55c4580fa2e0 -->
<g id="edge4" class="edge">
<title>capsfilter0_0x55c45811e310_src_0x55c4580fba00&#45;&gt;t_0x55c458100000_sink_0x55c4580fa2e0</title>
<path fill="none" stroke="black" d="M741.01,-110C759.63,-110 784.96,-110 805.59,-110"/>
<polygon fill="black" stroke="black" points="805.59,-113.5 815.59,-110 805.59,-106.5 805.59,-113.5"/>
<text text-anchor="middle" x="784" y="-112.8" font-family="monospace" font-size="9.00">ANY</text>
</g>
<!-- t_0x55c458100000_src_0_0x55c45810e560 -->
<g id="node19" class="node">
<title>t_0x55c458100000_src_0_0x55c45810e560</title>
<polygon fill="#ffaaaa" stroke="black" stroke-dasharray="5,2" points="957,-120 903,-120 903,-100 957,-100 957,-120"/>
<text text-anchor="middle" x="930" y="-112.8" font-family="sans" font-size="9.00">src_0</text>
<text text-anchor="middle" x="930" y="-102.8" font-family="sans" font-size="9.00">[&#45;][bFb]</text>
</g>
<!-- t_0x55c458100000_sink_0x55c4580fa2e0&#45;&gt;t_0x55c458100000_src_0_0x55c45810e560 -->
<!-- autovideosink1_actual_sink_xvimage_0x55c458123d90_sink_0x55c45812a340 -->
<g id="node9" class="node">
<title>autovideosink1_actual_sink_xvimage_0x55c458123d90_sink_0x55c45812a340</title>
<polygon fill="#aaaaff" stroke="black" points="2947,-53 2893,-53 2893,-33 2947,-33 2947,-53"/>
<text text-anchor="middle" x="2920" y="-45.8" font-family="sans" font-size="9.00">sink</text>
<text text-anchor="middle" x="2920" y="-35.8" font-family="sans" font-size="9.00">[&#45;][bFb]</text>
</g>
<!-- _proxypad1_0x55c45810e310&#45;&gt;autovideosink1_actual_sink_xvimage_0x55c458123d90_sink_0x55c45812a340 -->
<g id="edge6" class="edge">
<title>_proxypad1_0x55c45810e310&#45;&gt;autovideosink1_actual_sink_xvimage_0x55c458123d90_sink_0x55c45812a340</title>
<path fill="none" stroke="black" d="M2552.09,-60.74C2620.29,-57.44 2803.99,-48.56 2882.55,-44.76"/>
<polygon fill="black" stroke="black" points="2883.1,-48.24 2892.92,-44.26 2882.76,-41.25 2883.1,-48.24"/>
<text text-anchor="middle" x="2699.5" y="-61.8" font-family="monospace" font-size="9.00"> &#160;&#160;&#160;&#160;&#160;&#160;&#160;&#160;&#160;&#160;&#160;&#160;&#160;&#160;&#160;&#160;&#160;&#160;&#160;&#160;&#160;&#160;&#160;&#160;&#160;&#160;&#160;&#160;&#160;&#160;&#160;&#160;&#160;&#160;&#160;&#160;&#160;&#160;&#160;&#160;&#160;&#160;&#160;&#160;&#160;&#160;&#160;&#160;&#160;</text>
<text text-anchor="start" x="2712.04" y="-58.29" font-family="monospace" font-size="6.00">video/x&#45;raw</text>
<text text-anchor="start" x="2712.04" y="-51.29" font-family="monospace" font-size="6.00"> &#160;&#160;&#160;&#160;&#160;&#160;&#160;&#160;&#160;&#160;framerate: [ 0/1, 2147483647/1 ]</text>
<text text-anchor="start" x="2712.04" y="-44.29" font-family="monospace" font-size="6.00"> &#160;&#160;&#160;&#160;&#160;&#160;&#160;&#160;&#160;&#160;&#160;&#160;&#160;&#160;width: [ 1, 2147483647 ]</text>
<text text-anchor="start" x="2712.04" y="-37.29" font-family="monospace" font-size="6.00"> &#160;&#160;&#160;&#160;&#160;&#160;&#160;&#160;&#160;&#160;&#160;&#160;&#160;height: [ 1, 2147483647 ]</text>
<text text-anchor="middle" x="2651.97" y="-54.61" font-family="monospace" font-size="6.00">ANY</text>
</g>
<!-- videoscale0_0x55c4581028a0_sink_0x55c4580fb0c0 -->
<g id="node10" class="node">
<title>videoscale0_0x55c4581028a0_sink_0x55c4580fb0c0</title>
<polygon fill="#aaaaff" stroke="black" points="1527,-45 1473,-45 1473,-25 1527,-25 1527,-45"/>
<text text-anchor="middle" x="1500" y="-37.8" font-family="sans" font-size="9.00">sink</text>
<text text-anchor="middle" x="1500" y="-27.8" font-family="sans" font-size="9.00">[&#45;][bFb]</text>
</g>
<!-- videoscale0_0x55c4581028a0_src_0x55c4580fb310 -->
<g id="node11" class="node">
<title>videoscale0_0x55c4581028a0_src_0x55c4580fb310</title>
<polygon fill="#ffaaaa" stroke="black" points="1922,-45 1868,-45 1868,-25 1922,-25 1922,-45"/>
<text text-anchor="middle" x="1895" y="-37.8" font-family="sans" font-size="9.00">src</text>
<text text-anchor="middle" x="1895" y="-27.8" font-family="sans" font-size="9.00">[&#45;][bFb]</text>
</g>
<!-- videoscale0_0x55c4581028a0_sink_0x55c4580fb0c0&#45;&gt;videoscale0_0x55c4581028a0_src_0x55c4580fb310 -->
<!-- videoscale0_0x55c4581028a0_src_0x55c4580fb310&#45;&gt;capsfilter1_0x55c45811e650_sink_0x55c4580fbc50 -->
<g id="edge8" class="edge">
<title>videoscale0_0x55c4581028a0_src_0x55c4580fb310&#45;&gt;capsfilter1_0x55c45811e650_sink_0x55c4580fbc50</title>
<path fill="none" stroke="black" d="M1922.09,-35C1993.02,-35 2189.56,-35 2271.45,-35"/>
<polygon fill="black" stroke="black" points="2271.76,-38.5 2281.76,-35 2271.76,-31.5 2271.76,-38.5"/>
<text text-anchor="middle" x="2115.5" y="-37.8" font-family="monospace" font-size="9.00"> &#160;&#160;&#160;&#160;&#160;&#160;&#160;&#160;&#160;&#160;&#160;&#160;&#160;&#160;&#160;&#160;&#160;&#160;&#160;&#160;&#160;&#160;&#160;&#160;&#160;&#160;&#160;&#160;&#160;&#160;&#160;&#160;&#160;&#160;&#160;&#160;&#160;&#160;&#160;&#160;&#160;&#160;&#160;&#160;&#160;&#160;&#160;&#160;&#160;</text>
<text text-anchor="middle" x="2181.76" y="-33.7" font-family="monospace" font-size="6.00">ANY</text>
<text text-anchor="start" x="1933.59" y="-65.2" font-family="monospace" font-size="6.00">video/x&#45;raw</text>
<text text-anchor="start" x="1933.59" y="-58.2" font-family="monospace" font-size="6.00"> &#160;&#160;&#160;&#160;&#160;&#160;&#160;&#160;&#160;&#160;&#160;&#160;&#160;format: { (string)AYUV64, (s... }</text>
<text text-anchor="start" x="1933.59" y="-51.2" font-family="monospace" font-size="6.00"> &#160;&#160;&#160;&#160;&#160;&#160;&#160;&#160;&#160;&#160;&#160;&#160;&#160;&#160;width: [ 1, 32767 ]</text>
<text text-anchor="start" x="1933.59" y="-44.2" font-family="monospace" font-size="6.00"> &#160;&#160;&#160;&#160;&#160;&#160;&#160;&#160;&#160;&#160;&#160;&#160;&#160;height: [ 1, 32767 ]</text>
<text text-anchor="start" x="1933.59" y="-37.2" font-family="monospace" font-size="6.00"> &#160;&#160;&#160;&#160;&#160;&#160;&#160;&#160;&#160;&#160;framerate: [ 0/1, 2147483647/1 ]</text>
<text text-anchor="start" x="1933.59" y="-30.2" font-family="monospace" font-size="6.00">video/x&#45;raw(ANY)</text>
<text text-anchor="start" x="1933.59" y="-23.2" font-family="monospace" font-size="6.00"> &#160;&#160;&#160;&#160;&#160;&#160;&#160;&#160;&#160;&#160;&#160;&#160;&#160;format: { (string)AYUV64, (s... }</text>
<text text-anchor="start" x="1933.59" y="-16.2" font-family="monospace" font-size="6.00"> &#160;&#160;&#160;&#160;&#160;&#160;&#160;&#160;&#160;&#160;&#160;&#160;&#160;&#160;width: [ 1, 32767 ]</text>
<text text-anchor="start" x="1933.59" y="-9.2" font-family="monospace" font-size="6.00"> &#160;&#160;&#160;&#160;&#160;&#160;&#160;&#160;&#160;&#160;&#160;&#160;&#160;height: [ 1, 32767 ]</text>
<text text-anchor="start" x="1933.59" y="-2.2" font-family="monospace" font-size="6.00"> &#160;&#160;&#160;&#160;&#160;&#160;&#160;&#160;&#160;&#160;framerate: [ 0/1, 2147483647/1 ]</text>
</g>
<!-- queue1_0x55c4581043a0_sink_0x55c4580fac20 -->
<g id="node12" class="node">
<title>queue1_0x55c4581043a0_sink_0x55c4580fac20</title>
<polygon fill="#aaaaff" stroke="black" points="1075,-48 1021,-48 1021,-28 1075,-28 1075,-48"/>
<text text-anchor="middle" x="1048" y="-40.8" font-family="sans" font-size="9.00">sink</text>
<text text-anchor="middle" x="1048" y="-30.8" font-family="sans" font-size="9.00">[&#45;][bFb]</text>
</g>
<!-- queue1_0x55c4581043a0_src_0x55c4580fae70 -->
<g id="node13" class="node">
<title>queue1_0x55c4581043a0_src_0x55c4580fae70</title>
<polygon fill="#ffaaaa" stroke="black" points="1162,-48 1108,-48 1108,-28 1162,-28 1162,-48"/>
<text text-anchor="middle" x="1135" y="-40.8" font-family="sans" font-size="9.00">src</text>
<text text-anchor="middle" x="1135" y="-30.8" font-family="sans" font-size="9.00">[&#45;][bFb]</text>
</g>
<!-- queue1_0x55c4581043a0_sink_0x55c4580fac20&#45;&gt;queue1_0x55c4581043a0_src_0x55c4580fae70 -->
<!-- queue1_0x55c4581043a0_src_0x55c4580fae70&#45;&gt;videoscale0_0x55c4581028a0_sink_0x55c4580fb0c0 -->
<g id="edge10" class="edge">
<title>queue1_0x55c4581043a0_src_0x55c4580fae70&#45;&gt;videoscale0_0x55c4581028a0_sink_0x55c4580fb0c0</title>
<path fill="none" stroke="black" d="M1162.11,-37.78C1225.79,-37.26 1389.24,-35.91 1462.51,-35.3"/>
<polygon fill="black" stroke="black" points="1462.67,-38.8 1472.64,-35.22 1462.61,-31.8 1462.67,-38.8"/>
<text text-anchor="middle" x="1317.5" y="-40.8" font-family="monospace" font-size="9.00"> &#160;&#160;&#160;&#160;&#160;&#160;&#160;&#160;&#160;&#160;&#160;&#160;&#160;&#160;&#160;&#160;&#160;&#160;&#160;&#160;&#160;&#160;&#160;&#160;&#160;&#160;&#160;&#160;&#160;&#160;&#160;&#160;&#160;&#160;&#160;&#160;&#160;&#160;&#160;&#160;&#160;&#160;&#160;&#160;&#160;&#160;&#160;&#160;&#160;</text>
<text text-anchor="start" x="1284.15" y="-66.24" font-family="monospace" font-size="6.00">video/x&#45;raw</text>
<text text-anchor="start" x="1284.15" y="-59.24" font-family="monospace" font-size="6.00"> &#160;&#160;&#160;&#160;&#160;&#160;&#160;&#160;&#160;&#160;&#160;&#160;&#160;format: { (string)AYUV64, (s... }</text>
<text text-anchor="start" x="1284.15" y="-52.24" font-family="monospace" font-size="6.00"> &#160;&#160;&#160;&#160;&#160;&#160;&#160;&#160;&#160;&#160;&#160;&#160;&#160;&#160;width: [ 1, 32767 ]</text>
<text text-anchor="start" x="1284.15" y="-45.24" font-family="monospace" font-size="6.00"> &#160;&#160;&#160;&#160;&#160;&#160;&#160;&#160;&#160;&#160;&#160;&#160;&#160;height: [ 1, 32767 ]</text>
<text text-anchor="start" x="1284.15" y="-38.24" font-family="monospace" font-size="6.00"> &#160;&#160;&#160;&#160;&#160;&#160;&#160;&#160;&#160;&#160;framerate: [ 0/1, 2147483647/1 ]</text>
<text text-anchor="start" x="1284.15" y="-31.24" font-family="monospace" font-size="6.00">video/x&#45;raw(ANY)</text>
<text text-anchor="start" x="1284.15" y="-24.24" font-family="monospace" font-size="6.00"> &#160;&#160;&#160;&#160;&#160;&#160;&#160;&#160;&#160;&#160;&#160;&#160;&#160;format: { (string)AYUV64, (s... }</text>
<text text-anchor="start" x="1284.15" y="-17.24" font-family="monospace" font-size="6.00"> &#160;&#160;&#160;&#160;&#160;&#160;&#160;&#160;&#160;&#160;&#160;&#160;&#160;&#160;width: [ 1, 32767 ]</text>
<text text-anchor="start" x="1284.15" y="-10.24" font-family="monospace" font-size="6.00"> &#160;&#160;&#160;&#160;&#160;&#160;&#160;&#160;&#160;&#160;&#160;&#160;&#160;height: [ 1, 32767 ]</text>
<text text-anchor="start" x="1284.15" y="-3.24" font-family="monospace" font-size="6.00"> &#160;&#160;&#160;&#160;&#160;&#160;&#160;&#160;&#160;&#160;framerate: [ 0/1, 2147483647/1 ]</text>
<text text-anchor="middle" x="1262.1" y="-35.66" font-family="monospace" font-size="6.00">ANY</text>
</g>
<!-- _proxypad0_0x55c45810e0b0 -->
<g id="node14" class="node">
<title>_proxypad0_0x55c45810e0b0</title>
<polygon fill="#ddddff" stroke="black" points="1527,-176 1473,-176 1473,-156 1527,-156 1527,-176"/>
<text text-anchor="middle" x="1500" y="-168.8" font-family="sans" font-size="9.00">proxypad0</text>
<text text-anchor="middle" x="1500" y="-158.8" font-family="sans" font-size="9.00">[&#45;][bfb]</text>
</g>
<!-- autovideosink0_actual_sink_xvimage_0x55c45813b190_sink_0x55c45812a590 -->
<g id="node16" class="node">
<title>autovideosink0_actual_sink_xvimage_0x55c45813b190_sink_0x55c45812a590</title>
<polygon fill="#aaaaff" stroke="black" points="1922,-157 1868,-157 1868,-137 1922,-137 1922,-157"/>
<text text-anchor="middle" x="1895" y="-149.8" font-family="sans" font-size="9.00">sink</text>
<text text-anchor="middle" x="1895" y="-139.8" font-family="sans" font-size="9.00">[&#45;][bFb]</text>
</g>
<!-- _proxypad0_0x55c45810e0b0&#45;&gt;autovideosink0_actual_sink_xvimage_0x55c45813b190_sink_0x55c45812a590 -->
<g id="edge12" class="edge">
<title>_proxypad0_0x55c45810e0b0&#45;&gt;autovideosink0_actual_sink_xvimage_0x55c45813b190_sink_0x55c45812a590</title>
<path fill="none" stroke="black" d="M1527.09,-164.74C1595.29,-161.44 1778.99,-152.56 1857.55,-148.76"/>
<polygon fill="black" stroke="black" points="1858.1,-152.24 1867.92,-148.26 1857.76,-145.25 1858.1,-152.24"/>
<text text-anchor="middle" x="1674.5" y="-165.8" font-family="monospace" font-size="9.00"> &#160;&#160;&#160;&#160;&#160;&#160;&#160;&#160;&#160;&#160;&#160;&#160;&#160;&#160;&#160;&#160;&#160;&#160;&#160;&#160;&#160;&#160;&#160;&#160;&#160;&#160;&#160;&#160;&#160;&#160;&#160;&#160;&#160;&#160;&#160;&#160;&#160;&#160;&#160;&#160;&#160;&#160;&#160;&#160;&#160;&#160;&#160;&#160;&#160;</text>
<text text-anchor="start" x="1687.04" y="-162.29" font-family="monospace" font-size="6.00">video/x&#45;raw</text>
<text text-anchor="start" x="1687.04" y="-155.29" font-family="monospace" font-size="6.00"> &#160;&#160;&#160;&#160;&#160;&#160;&#160;&#160;&#160;&#160;framerate: [ 0/1, 2147483647/1 ]</text>
<text text-anchor="start" x="1687.04" y="-148.29" font-family="monospace" font-size="6.00"> &#160;&#160;&#160;&#160;&#160;&#160;&#160;&#160;&#160;&#160;&#160;&#160;&#160;&#160;width: [ 1, 2147483647 ]</text>
<text text-anchor="start" x="1687.04" y="-141.29" font-family="monospace" font-size="6.00"> &#160;&#160;&#160;&#160;&#160;&#160;&#160;&#160;&#160;&#160;&#160;&#160;&#160;height: [ 1, 2147483647 ]</text>
<text text-anchor="middle" x="1626.97" y="-158.61" font-family="monospace" font-size="6.00">ANY</text>
</g>
<!-- autovideosink0_0x55c45810a060_sink_0x55c45810c050 -->
<g id="node15" class="node">
<title>autovideosink0_0x55c45810a060_sink_0x55c45810c050</title>
<polygon fill="#ddddff" stroke="black" points="1527,-149 1473,-149 1473,-129 1527,-129 1527,-149"/>
<text text-anchor="middle" x="1500" y="-141.8" font-family="sans" font-size="9.00">sink</text>
<text text-anchor="middle" x="1500" y="-131.8" font-family="sans" font-size="9.00">[&#45;][bFb]</text>
</g>
<!-- autovideosink0_0x55c45810a060_sink_0x55c45810c050&#45;&gt;_proxypad0_0x55c45810e0b0 -->
<g id="edge11" class="edge">
<title>autovideosink0_0x55c45810a060_sink_0x55c45810c050&#45;&gt;_proxypad0_0x55c45810e0b0</title>
<path fill="none" stroke="black" stroke-dasharray="5,2" d="M1500,-149.12C1500,-149.27 1500,-149.41 1500,-149.55"/>
<polygon fill="black" stroke="black" points="1496.5,-145.98 1500,-155.98 1503.5,-145.98 1496.5,-145.98"/>
</g>
<!-- queue0_0x55c4581040a0_sink_0x55c4580fa530 -->
<g id="node17" class="node">
<title>queue0_0x55c4581040a0_sink_0x55c4580fa530</title>
<polygon fill="#aaaaff" stroke="black" points="1075,-147 1021,-147 1021,-127 1075,-127 1075,-147"/>
<text text-anchor="middle" x="1048" y="-139.8" font-family="sans" font-size="9.00">sink</text>
<text text-anchor="middle" x="1048" y="-129.8" font-family="sans" font-size="9.00">[&#45;][bFb]</text>
</g>
<!-- queue0_0x55c4581040a0_src_0x55c4580fa780 -->
<g id="node18" class="node">
<title>queue0_0x55c4581040a0_src_0x55c4580fa780</title>
<polygon fill="#ffaaaa" stroke="black" points="1162,-147 1108,-147 1108,-127 1162,-127 1162,-147"/>
<text text-anchor="middle" x="1135" y="-139.8" font-family="sans" font-size="9.00">src</text>
<text text-anchor="middle" x="1135" y="-129.8" font-family="sans" font-size="9.00">[&#45;][bFb]</text>
</g>
<!-- queue0_0x55c4581040a0_sink_0x55c4580fa530&#45;&gt;queue0_0x55c4581040a0_src_0x55c4580fa780 -->
<!-- queue0_0x55c4581040a0_src_0x55c4580fa780&#45;&gt;autovideosink0_0x55c45810a060_sink_0x55c45810c050 -->
<g id="edge14" class="edge">
<title>queue0_0x55c4581040a0_src_0x55c4580fa780&#45;&gt;autovideosink0_0x55c45810a060_sink_0x55c45810c050</title>
<path fill="none" stroke="black" d="M1162.11,-137.14C1225.79,-137.49 1389.24,-138.4 1462.51,-138.8"/>
<polygon fill="black" stroke="black" points="1462.62,-142.3 1472.64,-138.85 1462.66,-135.3 1462.62,-142.3"/>
<text text-anchor="middle" x="1317.5" y="-140.8" font-family="monospace" font-size="9.00">ANY</text>
</g>
<!-- t_0x55c458100000_src_0_0x55c45810e560&#45;&gt;queue0_0x55c4581040a0_sink_0x55c4580fa530 -->
<g id="edge16" class="edge">
<title>t_0x55c458100000_src_0_0x55c45810e560&#45;&gt;queue0_0x55c4581040a0_sink_0x55c4580fa530</title>
<path fill="none" stroke="black" d="M957.03,-116.06C972.89,-119.75 993.39,-124.52 1010.81,-128.58"/>
<polygon fill="black" stroke="black" points="1010.12,-132.01 1020.65,-130.87 1011.71,-125.19 1010.12,-132.01"/>
<text text-anchor="middle" x="989" y="-127.8" font-family="monospace" font-size="9.00">ANY</text>
</g>
<!-- t_0x55c458100000_src_1_0x55c45810e7c0 -->
<g id="node20" class="node">
<title>t_0x55c458100000_src_1_0x55c45810e7c0</title>
<polygon fill="#ffaaaa" stroke="black" stroke-dasharray="5,2" points="957,-93 903,-93 903,-73 957,-73 957,-93"/>
<text text-anchor="middle" x="930" y="-85.8" font-family="sans" font-size="9.00">src_1</text>
<text text-anchor="middle" x="930" y="-75.8" font-family="sans" font-size="9.00">[&#45;][bFb]</text>
</g>
<!-- t_0x55c458100000_src_1_0x55c45810e7c0&#45;&gt;queue1_0x55c4581043a0_sink_0x55c4580fac20 -->
<g id="edge17" class="edge">
<title>t_0x55c458100000_src_1_0x55c45810e7c0&#45;&gt;queue1_0x55c4581043a0_sink_0x55c4580fac20</title>
<path fill="none" stroke="black" d="M957.03,-72.9C973.15,-66.65 994.06,-58.54 1011.67,-51.71"/>
<polygon fill="black" stroke="black" points="1013,-54.95 1021.05,-48.07 1010.47,-48.42 1013,-54.95"/>
<text text-anchor="middle" x="989" y="-65.8" font-family="monospace" font-size="9.00">ANY</text>
</g>
<!-- videotestsrc0_0x55c4580f9410_src_0x55c4580fa090 -->
<g id="node21" class="node">
<title>videotestsrc0_0x55c4580f9410_src_0x55c4580fa090</title>
<polygon fill="#ffaaaa" stroke="black" points="174,-120 120,-120 120,-100 174,-100 174,-120"/>
<text text-anchor="middle" x="147" y="-112.8" font-family="sans" font-size="9.00">src</text>
<text text-anchor="middle" x="147" y="-102.8" font-family="sans" font-size="9.00">[&#45;][bFb]</text>
</g>
<!-- videotestsrc0_0x55c4580f9410_src_0x55c4580fa090&#45;&gt;capsfilter0_0x55c45811e310_sink_0x55c4580fb7b0 -->
<g id="edge18" class="edge">
<title>videotestsrc0_0x55c4580f9410_src_0x55c4580fa090&#45;&gt;capsfilter0_0x55c45811e310_sink_0x55c4580fb7b0</title>
<path fill="none" stroke="black" d="M174.04,-110C254.15,-110 497.12,-110 589.67,-110"/>
<polygon fill="black" stroke="black" points="589.94,-113.5 599.94,-110 589.94,-106.5 589.94,-113.5"/>
<text text-anchor="middle" x="433.5" y="-112.8" font-family="monospace" font-size="9.00"> &#160;&#160;&#160;&#160;&#160;&#160;&#160;&#160;&#160;&#160;&#160;&#160;&#160;&#160;&#160;&#160;&#160;&#160;&#160;&#160;&#160;&#160;&#160;&#160;&#160;&#160;&#160;&#160;&#160;&#160;&#160;&#160;&#160;&#160;&#160;&#160;&#160;&#160;&#160;&#160;&#160;&#160;&#160;&#160;&#160;&#160;&#160;&#160;&#160;</text>
<text text-anchor="middle" x="499.94" y="-108.7" font-family="monospace" font-size="6.00">ANY</text>
<text text-anchor="start" x="185.54" y="-147.2" font-family="monospace" font-size="6.00">video/x&#45;raw</text>
<text text-anchor="start" x="185.54" y="-140.2" font-family="monospace" font-size="6.00"> &#160;&#160;&#160;&#160;&#160;&#160;&#160;&#160;&#160;&#160;&#160;&#160;&#160;format: { (string)AYUV64, (s... }</text>
<text text-anchor="start" x="185.54" y="-133.2" font-family="monospace" font-size="6.00"> &#160;&#160;&#160;&#160;&#160;&#160;&#160;&#160;&#160;&#160;&#160;&#160;&#160;&#160;width: [ 1, 2147483647 ]</text>
<text text-anchor="start" x="185.54" y="-126.2" font-family="monospace" font-size="6.00"> &#160;&#160;&#160;&#160;&#160;&#160;&#160;&#160;&#160;&#160;&#160;&#160;&#160;height: [ 1, 2147483647 ]</text>
<text text-anchor="start" x="185.54" y="-119.2" font-family="monospace" font-size="6.00"> &#160;&#160;&#160;&#160;&#160;&#160;&#160;&#160;&#160;&#160;framerate: [ 0/1, 2147483647/1 ]</text>
<text text-anchor="start" x="185.54" y="-112.2" font-family="monospace" font-size="6.00"> &#160;&#160;&#160;&#160;&#160;multiview&#45;mode: { (string)mono, (str... }</text>
<text text-anchor="start" x="185.54" y="-105.2" font-family="monospace" font-size="6.00">video/x&#45;bayer</text>
<text text-anchor="start" x="185.54" y="-98.2" font-family="monospace" font-size="6.00"> &#160;&#160;&#160;&#160;&#160;&#160;&#160;&#160;&#160;&#160;&#160;&#160;&#160;format: { (string)bggr, (str... }</text>
<text text-anchor="start" x="185.54" y="-91.2" font-family="monospace" font-size="6.00"> &#160;&#160;&#160;&#160;&#160;&#160;&#160;&#160;&#160;&#160;&#160;&#160;&#160;&#160;width: [ 1, 2147483647 ]</text>
<text text-anchor="start" x="185.54" y="-84.2" font-family="monospace" font-size="6.00"> &#160;&#160;&#160;&#160;&#160;&#160;&#160;&#160;&#160;&#160;&#160;&#160;&#160;height: [ 1, 2147483647 ]</text>
<text text-anchor="start" x="185.54" y="-77.2" font-family="monospace" font-size="6.00"> &#160;&#160;&#160;&#160;&#160;&#160;&#160;&#160;&#160;&#160;framerate: [ 0/1, 2147483647/1 ]</text>
<text text-anchor="start" x="185.54" y="-70.2" font-family="monospace" font-size="6.00"> &#160;&#160;&#160;&#160;&#160;multiview&#45;mode: { (string)mono, (str... }</text>
</g>
</g>
</svg>
